typeid,posx,posy,dir
10026,58,66,8
10026,70,59,10
10026,84,80,10
10026,97,59,12
10026,64,91,0
10026,133,51,12
10026,133,43,12
10026,176,43,10
10026,182,69,8
10026,191,69,0
10026,181,101,8
10026,188,101,0
10026,196,101,8
10026,218,140,12
10026,216,128,12
10026,178,145,4
10026,179,132,4
10026,197,161,8
10026,218,159,0
10023,209,171,8
10026,155,127,4
10026,156,115,4
10026,215,102,12
10028,125,47,12
10028,138,46,12
10028,64,63,10
10028,91,71,10
10028,166,48,10
10028,174,36,12
10028,158,185,6
10028,152,179,4
10028,122,192,4
10028,119,198,4
10028,118,189,6
10028,72,208,8
10028,75,204,0
10028,80,185,8
10028,86,183,0
10028,55,159,8
10028,43,165,0
10028,178,119,4
10028,216,120,12
10028,50,91,8
10028,95,204,8
10028,54,185,0
10028,97,198,8
10028,46,210,0
10028,44,215,8
10029,50,213,0
10029,45,156,8
1000,59,250,0
10022,61,188,8
10022,132,216,0
10022,141,218,8
10022,153,243,8
10022,163,237,0
10022,168,248,8
10022,169,280,0
10022,197,275,8
10022,175,284,0
10022,219,291,8
10022,212,293,0
10022,170,309,8
10022,175,308,0
10022,177,329,8
10022,200,339,0
10022,207,339,8
10022,212,340,0
10022,222,322,8
10022,218,321,0
10022,180,308,8
10022,206,276,0
10022,198,312,8
10022,201,311,0
10022,198,304,8
10022,42,239,8
10022,44,244,0
10022,47,239,8
10022,66,259,0
10022,60,260,8
10022,49,264,0
10022,42,289,8
10022,47,289,0
10022,51,289,8
10022,72,298,0
10030,69,303,8
10030,68,298,0
10030,92,303,8
10030,97,303,8
10030,100,299,0
10030,69,229,8
10030,65,232,0
10030,63,227,8
10030,88,223,8
10030,93,223,0
10030,103,350,8
10030,31,348,8
10030,36,347,0
10030,36,343,8
10030,57,339,0
10030,67,348,8
10030,61,343,8
10030,60,373,0
10030,95,342,8
10030,106,340,0
10030,110,323,8
10030,106,322,0
10030,101,322,8
10030,80,333,0
10030,75,329,8
10030,81,327,0
10030,45,313,8
10030,51,316,0
10030,57,319,8
10030,59,368,8
10030,66,371,0
10030,110,77,12
10030,108,70,10
10030,117,72,8
10030,101,173,0
10030,108,212,10
10023,110,340,12
10040,60,38,12
10041,60,30,12
10042,58,20,12
10043,48,24,6
10044,44,36,6
3129,119,329,12