typeid,posx,posy,dir
3419,68,-1630,6
3315,65,-1630,8
4378,86,-1606,4
2054,68,-1627,0
344,80,-1452,8
343,43,-1498,14
337,44,-1502,12
335,88,-1574,14
371,87,-1624,12
373,79,-1654,0
338,64,-1652,8
374,73,-1654,0
334,57,-1651,0
415,51,-1651,0
333,42,-1623,4
58,44,-1616,8
199,61,-1617,8
4668,85,-1782,8
4668,96,-1782,8
4668,119,-1782,8
4668,142,-1782,8
4668,153,-1782,8
4668,159,-1782,8
4668,-253,-1598,4
4668,-253,-1590,4
4668,-253,-1580,4
4668,73,-1781,8