typeid,posx,posy,dir
13325,137,29,0
13326,142,64,8
13326,149,64,8
13326,143,85,0
13326,149,85,8
13326,156,85,0
13326,135,108,8
13326,136,112,8
13326,168,101,0
13326,173,101,8
13326,170,122,0
13326,177,118,8
13326,174,123,0
13326,109,128,8
13326,119,121,0
13326,112,123,8
13326,127,137,0
13326,123,138,8
13326,165,146,0
13326,171,143,8
13327,186,97,14
13327,186,95,6
13327,188,92,14
13327,196,78,6
13327,200,77,14
13327,205,78,6
13327,214,97,14
13327,210,93,6
13327,208,96,14
13327,205,111,6
13327,200,107,14
13327,198,102,6
13327,215,133,14
13327,217,128,6
13327,211,130,14
13327,208,158,6
13327,208,146,14
13327,202,144,6
13327,199,130,8
13327,192,130,6
13328,39,184,8
13328,49,176,0
13328,53,182,8
13328,37,155,0
13328,44,150,8
13328,52,146,0
13328,49,126,8
13328,46,119,0
13328,54,117,8
13328,44,96,0
13328,49,91,8
13328,58,90,0
13328,79,106,8
13328,76,101,0
13328,82,96,8
13328,87,129,0
13328,91,127,8
13328,95,118,0
13328,76,155,8
13328,81,162,0
13328,103,177,8
13328,107,172,0
13328,113,167,8
13328,113,195,0
13328,119,189,8
13327,164,173,8
13327,155,168,0
13327,149,166,8
13327,149,190,8
13327,142,188,8
13326,138,150,8
13326,146,150,0
13326,128,175,8
13326,134,172,0
13329,139,213,8
13326,138,108,8
13330,126,255,8
13330,133,256,0
13330,141,256,8
13330,126,273,6
13330,136,273,0
13331,133,278,8
13331,133,298,8
13331,142,297,0
13331,193,336,8
13331,193,329,0
13331,187,332,8
13330,107,336,4
13330,106,330,12
13330,113,330,4
13330,127,357,6
13330,135,357,14
13330,142,357,6
13331,162,337,8
13331,162,330,0
13331,162,322,8
13331,80,416,0
13331,83,409,8
13331,102,392,0
13331,176,400,2
13331,181,404,0
13331,181,396,8
13331,202,407,0
13331,206,401,8
13331,127,465,8
13331,132,459,0
13331,136,453,8
13330,109,391,8
13330,152,417,12
13330,211,408,8
13330,214,385,0
13330,218,382,8
13330,37,391,0
13330,41,387,8
13330,42,378,0
13330,88,415,8
13332,50,467,8
13332,56,467,0
13332,63,466,8
13332,102,441,0
13332,109,441,8
13332,115,439,0
13332,167,475,12
13332,167,469,12
13332,173,472,12
13332,195,478,12
13335,233,468,12
13332,228,471,10
13332,228,464,12
13332,217,478,10
13331,196,471,12
13331,197,487,12
13331,216,456,10
13331,203,446,12
13332,224,443,12
13332,201,450,14
13332,202,454,14
13332,219,483,10
13332,214,459,10
13332,226,446,12
13332,90,471,8
13332,86,464,0
13332,93,465,8
13332,133,428,0
13332,139,429,8
13334,152,100,4
13330,150,413,12
13330,148,409,14
13330,212,380,8
13333,232,394,10