"Name","EatParentTime","EatTotalTime","EatTotalTime","TimePreFrame","TotalTime","TotalCall",
"AppIdle","100.000%","100.000 %","100.000 %","20.350ms","19.475s","957"
"AloneRoot","100.000%","0.000 %","0.000 %","0.000ms","0.000s","0"
