WORD,string,,,,,,,,,,,,,,,,,,,,,,,,,,,,,,,,,,,,,,WORD,,,,,,,,,,,,,,,,,,,,,,list,,list,DWORD,,,,,,int,DWORD,string,int,BYTE,WORD,int,int,char[20],char[20],char[20],char[20],int,int,action,action,action,action,int,int,int,int,int,float,,int,,action,action,action,action,,,,,,,,,,,,,,,,,,,,,,,,,,,,
,名字,地区版本备注,是否测试道具,类型,武器类型,门派,道具等级,道具最高修炼等级,最低可装备等级,元神需求等级,伤害等级,默认品质,默认属性ID,默认打开属性个数,属性检索ID,分解ID,不生成DBID,是否套装装备,PK红名不可掉落,可交易,可存仓库,可销售,可丢弃,商城道具,道具自动使用效果,可删除,可锻造,使用方式,是否可数,初始个数,最大个数,是否消耗,"功能1,,,,,,,,,,,,,,,,,,,,,,,,,,,,,,,,,,,,,,,,,,,,,,,,,,,,,,,,,,,,,,,,,,,,,,,,,,,,,,,,,,,,,,,,,,,,,,,,,,,,,,,,,,,,,,,,,,,,,,,,,,,,,,,,,,,,,,,,,,,,,,,,,,,,,,,,,,,,,,,,,,,,,,,,,,,,,,,,,,,,,,,,,,,,,,,,,,,,,,,,,,,,,,,,,,,,,,,,,,,,,,,,,,,,,,,,,,,,,,,,,,,,,,,,,,,,,,,,,,,,,,,,,,,,,,,,,,,,,,,,,,,,,,,,,,,,,,,,,,,,,,,,,,,,,,,,,,,,,,,,,,,,,,,,,,,,,,,,,,,,,,,,,,,,,,,,,,,,,,,,,,,,,,,,,,,,,,,,,,,,,,,,,,,,,,,,,,,,,,,,,,,,,,,,,,,,,,,,,,,,,,,,,,,,,,,,,,,,,,,,,,,,,,,,,,,,,,,,,,,,,,,,,,,,,,,,,,,,,,,,,,,,,,,,,,,,,,,,,,,,,,,,,,,,,,,,,,,,,,,,,,,,,,,,,,,,,,,,,,,,,,,,,,,,,,,,,,,,,,,,,,,,,,,,,,,,,,,,,,,,,,,,,,,,,,,,,,,,,,,,,,,,,,,,,,,,,,,,,,,,,,,,,,,,,,,,,,,,,,,,,,,,,,,,,,,,,,,,,,,,,,,,,,,,,,,,,,,,,,,,,,,,,,,,,,,,,,,(使用时间 秒)",是否任务道具,是否唯一,是否双手武器,价值,点数,耐久度上限,使用条件,装备条件,拾取效果,表格用等级,装备执行,装备物理防御,火防御,水防御,毒防御,电防御,佛法防御,伤害吸收,装备Dps,装备招架,初始化数值,其他参数,其他参数2,其他参数3,魔石镶嵌等级,魔石镶嵌类型,道具使用时弹出对话框,法宝技能,法宝终极技能,法宝天赋,主法宝默认技能,技能前置开始动作,技能前置动作,技能前置动作,竞技场专用,释放类型,有益性,目标类型,目标限制,特殊作用,最大目标个数,最大目标距离,地面目标半径,前置时间,引导开始前自身临时执行,引导开始前目标临时执行,引导开始前自身执行,引导开始前目标执行,引导时间,引导次数,引导时自身临时执行,引导时目标临时执行,引导时自身执行,引导时目标执行,冷却时间,公共冷却时间,分组冷却Id,禁止行动时间,动作时间,爆击几率,特效几率,附加显示特殊系数,伤害属性类型,释放时自身临时执行,释放时目标临时执行,释放时自身执行,释放时目标执行,非有益技能是否计算伤害,实际伤害时间,最小最大伤害,参数2,图标,模型,蓝色模型,金色模型,加10模型,缩放比例,武器模型2,武器蓝色模型2,武器金色模型2,加10模型,是否带路径,武器link,坐骑+10特效,坐骑+10特效Link,武器1收起link点,武器link2,武器2收起link点,声音,场景特效,受击特效,受击特效link,不受攻击状态限制,,
ID,_name,,IsTestItem,m_Type,m_WeaponType,m_Party,m_ItemLevel,m_ItemMaxLevel,m_EquipNeedLevel,m_EquipNeedGodLevel,m_DamageLevel,DefaultColor,DefaultAttrib,DefaultAttribNum,Factor,DecomposeId,NoDBID,m_bSuit,m_bPkDropLock,m_bCanTrade,m_bCanBank,m_bCanShop,m_bCanDrop,m_bPointShop,m_BindBuff,m_bCanDelete,m_bCanSmithing,m_UseType,m_bCountable,m_InitCount,m_MaxCount,m_bConsume,TimeLimit,m_bTaskItem,m_bSingle,m_bBothHand,m_Value,m_CardPoints,m_MaxHardiness,m_pUseCondition,m_pEquipCondition,m_pPickAction,Level_TableUse,m_pEquipAction,m_pEquipPhyArmor,EquipArm_Fire,EquipArm_Wator,EquipArm_Poison,EquipArm_Light,EquipArm_Fo,m_pEquipDamageAbsorb,m_pEquipDps,m_pEquipParry,InitValue,OtherParam,OtherParam2,OtherParam3,GemmyLevel,GemmyType,strItemUseMessage,arrTrumpSkills,arrTrumpFinalSkills,arrTrumpTalents,m_TrumpAttackSkill,graph_PreStartPose,graph_PrePose,graph_EndPose,bDungeonOnly,ReleaseType,Benefit,TargetType,TargetCondition,Special,TargetCount,TargetRange,TargetRadius,PreTime,BeforeLoadingTmpSelf,BeforeLoadingTmpTarget,BeforeLoadingSelf,BeforeLoadingTarget,LoadingTime,LoadingCount,LoadingTmpSelf,LoadingTmpTarget,LoadingSelf,LoadingTarget,CDTime,PublicCDTime,TypeCDId,ForbiddenTime,PoseTime,CriticalRate,EffRate,AddtionShowParam,DmgType,LaunchTmpSelf,LaunchTmpTarget,LaunchSelf,LaunchTarget,NoDamage,RealDmgTime,DamageMinMax,graph_Param2,Icon,Model,Model_Blue,Model_Golden,Model_10,Scale_Value,Model2,Model_Blue2,Model_Golden2,Model2_10,m_bPath,weaponLink,ItemRiderEffect,ItemRiderEffectLink,weapon1DrawInLink,weaponLink2,weapon1DrawInLink2,m_Sound,graph_SceneEff,graph_HitEff,graph_HitEffLink,bNotCheckAttState,bcache,bPrePoseDrawInWeapon
8600,"Pvp pill (250)",,,24,,5,,,40,,,1,,,,,1,,1,1,1,,,,,1,,2,1,1,99,1,,,,,1000,,100,,,,,,,,,,,,,,,,,,,,,,,,,,,,,,1,1,0,,,,,,,,,,,,,,,,,1000,1000,,,,,,,,,,"AddUserDungeonScore(0,250)",,,,,-2,ic_it0009,,,,,,,,,,,,,,,,,,,,,,0,
8601,"Pvp pill (500)",,,24,,5,,,40,,,1,,,,,1,,1,1,1,,,,,1,,2,1,1,99,1,,,,,1000,,100,,,,,,,,,,,,,,,,,,,,,,,,,,,,,,1,1,0,,,,,,,,,,,,,,,,,1000,1000,,,,,,,,,,"AddUserDungeonScore(0,500)",,,,,-2,ic_it0010,,,,,,,,,,,,,,,,,,,,,,0,
8602,"Instant HP 300k (VIP)",,,20,1,5,,,1,,,7,,,,,1,,1,0,1,0,,1,,1,,2,1,5,99,1,,,,,3,32,100,,,,,,,,,,,,,,,,,,,,,,,,,,,,,,1,1,0,,,,,,,,,,,,,,,,,,1000,4,,,,,,,,,AddHp(300000),,,,,-2,ic_iu0033,,,,,,,,,,,,,,,,,,,,,,0,
8603,"Prosperity Token (100k)",,,100,,5,,,1,,,,,,,,1,,1,1,1,,,1,,1,,2,1,1,99,1,,,,,1000,,100,,,,,,,,,,,,,,,,,,,,,,,,,,,,,,1,1,0,,,,,,,,,,,,,,,,,1000,1000,,,,,,,,,,AddGuildPoint(100000),,,,,,ic_task1038,,,,,,,,,,,,,,,,,,,,,,0,
8604,"Prosperity Token (200k)",,,100,,5,,,1,,,,,,,,1,,1,1,1,,,1,,1,,2,1,1,99,1,,,,,1000,,100,,,,,,,,,,,,,,,,,,,,,,,,,,,,,,1,1,0,,,,,,,,,,,,,,,,,1000,1000,,,,,,,,,,AddGuildPoint(200000),,,,,,ic_task1038,,,,,,,,,,,,,,,,,,,,,,0,
8605,"Strong Guard",,,50,,5,,,,,,,,,,,,,,0,1,0,0,,,1,,2,,1,1,1,10800,0,,,1000,,,,,,,,,,,,,,,,,5655,,,,,,,,,,,use_begin,use_loop,use_end,,2,1,0,,,,,,1500,,,,,,,,,,,,,,,,,,,,,,,,,,,-1,ic_it0321,,,,,,,,,,,,,,,,,,,,,,0,1
8606,"Fierce Luo's Soldier",,,50,,5,,,,,,,,,,,,,,0,1,0,0,,,1,,2,,1,1,1,10800,0,,,1000,,,,,,,,,,,,,,,,,5622,,,,,,,,,,,use_begin,use_loop,use_end,,2,1,0,,,,,,1500,,,,,,,,,,,,,,,,,,,,,,,,,,,-1,ic_it0321,,,,,,,,,,,,,,,,,,,,,,0,1
8607,"Big Cavy",,,50,,5,,,,,,,,,,,,,,0,1,0,0,,,1,,2,,1,1,1,10800,0,,,1000,,,,,,,,,,,,,,,,,5526,,,,,,,,,,,use_begin,use_loop,use_end,,2,1,0,,,,,,1500,,,,,,,,,,,,,,,,,,,,,,,,,,,-1,ic_it0321,,,,,,,,,,,,,,,,,,,,,,0,1
8608,"Fierce Luo",,,50,,5,,,,,,,,,,,,,,0,1,0,0,,,1,,2,,1,1,1,10800,0,,,1000,,,,,,,,,,,,,,,,,5624,,,,,,,,,,,use_begin,use_loop,use_end,,2,1,0,,,,,,1500,,,,,,,,,,,,,,,,,,,,,,,,,,,-1,ic_it0321,,,,,,,,,,,,,,,,,,,,,,0,1
8609,"Ghost Soldier",,,50,,5,,,,,,,,,,,,,,0,1,0,0,,,1,,2,,1,1,1,10800,0,,,1000,,,,,,,,,,,,,,,,,5618,,,,,,,,,,,use_begin,use_loop,use_end,,2,1,0,,,,,,1500,,,,,,,,,,,,,,,,,,,,,,,,,,,-1,ic_it0321,,,,,,,,,,,,,,,,,,,,,,0,1
8610,"Bone Devil",,,50,,5,,,,,,,,,,,,,,0,1,0,0,,,1,,2,,1,1,1,10800,0,,,1000,,,,,,,,,,,,,,,,,5626,,,,,,,,,,,use_begin,use_loop,use_end,,2,1,0,,,,,,1500,,,,,,,,,,,,,,,,,,,,,,,,,,,-1,ic_it0321,,,,,,,,,,,,,,,,,,,,,,0,1
8611,"Sword Soul Guard",,,50,,5,,,,,,,,,,,,,,0,1,0,0,,,1,,2,,1,1,1,10800,0,,,1000,,,,,,,,,,,,,,,,,5520,,,,,,,,,,,use_begin,use_loop,use_end,,2,1,0,,,,,,1500,,,,,,,,,,,,,,,,,,,,,,,,,,,-1,ic_it0321,,,,,,,,,,,,,,,,,,,,,,0,1
8612,"Strange Scorpion",,,50,,5,,,,,,,,,,,,,,0,1,0,0,,,1,,2,,1,1,1,10800,0,,,1000,,,,,,,,,,,,,,,,,5518,,,,,,,,,,,use_begin,use_loop,use_end,,2,1,0,,,,,,1500,,,,,,,,,,,,,,,,,,,,,,,,,,,-1,ic_it0321,,,,,,,,,,,,,,,,,,,,,,0,1
8613,Pheasant,,,50,,5,,,,,,,,,,,,,,0,1,0,0,,,1,,2,,1,1,1,10800,0,,,1000,,,,,,,,,,,,,,,,,5514,,,,,,,,,,,use_begin,use_loop,use_end,,2,1,0,,,,,,1500,,,,,,,,,,,,,,,,,,,,,,,,,,,-1,ic_it0321,,,,,,,,,,,,,,,,,,,,,,0,1
8614,"Giant Earth Centipede",,,50,,5,,,,,,,,,,,,,,0,1,0,0,,,1,,2,,1,1,1,10800,0,,,1000,,,,,,,,,,,,,,,,,5085,,,,,,,,,,,use_begin,use_loop,use_end,,2,1,0,,,,,,1500,,,,,,,,,,,,,,,,,,,,,,,,,,,-1,ic_it0321,,,,,,,,,,,,,,,,,,,,,,0,1
8615,"Scarlet Toad",,,50,,5,,,,,,,,,,,,,,0,1,0,0,,,1,,2,,1,1,1,10800,0,,,1000,,,,,,,,,,,,,,,,,5080,,,,,,,,,,,use_begin,use_loop,use_end,,2,1,0,,,,,,1500,,,,,,,,,,,,,,,,,,,,,,,,,,,-1,ic_it0321,,,,,,,,,,,,,,,,,,,,,,0,1
8616,"Cave Witch",,,50,,5,,,,,,,,,,,,,,0,1,0,0,,,1,,2,,1,1,1,10800,0,,,1000,,,,,,,,,,,,,,,,,5105,,,,,,,,,,,use_begin,use_loop,use_end,,2,1,0,,,,,,1500,,,,,,,,,,,,,,,,,,,,,,,,,,,-1,ic_it0321,,,,,,,,,,,,,,,,,,,,,,0,1
8617,"Blade Master Sui",,,50,,5,,,,,,,,,,,,,,0,1,0,0,,,1,,2,,1,1,1,10800,0,,,1000,,,,,,,,,,,,,,,,,5108,,,,,,,,,,,use_begin,use_loop,use_end,,2,1,0,,,,,,1500,,,,,,,,,,,,,,,,,,,,,,,,,,,-1,ic_it0321,,,,,,,,,,,,,,,,,,,,,,0,1
8618,"Fire Eye Beast",,,50,,5,,,,,,,,,,,,,,0,1,0,0,,,1,,2,,1,1,1,10800,0,,,1000,,,,,,,,,,,,,,,,,5066,,,,,,,,,,,use_begin,use_loop,use_end,,2,1,0,,,,,,1500,,,,,,,,,,,,,,,,,,,,,,,,,,,-1,ic_it0321,,,,,,,,,,,,,,,,,,,,,,0,1
8619,"Hell Dog",,,50,,5,,,,,,,,,,,,,,0,1,0,0,,,1,,2,,1,1,1,10800,0,,,1000,,,,,,,,,,,,,,,,,5070,,,,,,,,,,,use_begin,use_loop,use_end,,2,1,0,,,,,,1500,,,,,,,,,,,,,,,,,,,,,,,,,,,-1,ic_it0321,,,,,,,,,,,,,,,,,,,,,,0,1
8620,"Evil Lord Ganondorf",,,50,,5,,,,,,,,,,,,,,0,1,0,0,,,1,,2,,1,1,1,10800,0,,,1000,,,,,,,,,,,,,,,,,16000,,,,,,,,,,,use_begin,use_loop,use_end,,2,1,0,,,,,,1500,,,,,,,,,,,,,,,,,,,,,,,,,,,-1,ic_it0322,,,,,,,,,,,,,,,,,,,,,,0,1
8621,"Dangoro Lord",,,50,,5,,,,,,,,,,,,,,0,1,0,0,,,1,,2,,1,1,1,10800,0,,,1000,,,,,,,,,,,,,,,,,16001,,,,,,,,,,,use_begin,use_loop,use_end,,2,1,0,,,,,,1500,,,,,,,,,,,,,,,,,,,,,,,,,,,-1,ic_it0322,,,,,,,,,,,,,,,,,,,,,,0,1
8622,"King Bulblin",,,50,,5,,,,,,,,,,,,,,0,1,0,0,,,1,,2,,1,1,1,10800,0,,,1000,,,,,,,,,,,,,,,,,16002,,,,,,,,,,,use_begin,use_loop,use_end,,2,1,0,,,,,,1500,,,,,,,,,,,,,,,,,,,,,,,,,,,-1,ic_it0322,,,,,,,,,,,,,,,,,,,,,,0,1
8623,"Queen Zelda",,,50,,5,,,,,,,,,,,,,,0,1,0,0,,,1,,2,,1,1,1,10800,0,,,1000,,,,,,,,,,,,,,,,,16003,,,,,,,,,,,use_begin,use_loop,use_end,,2,1,0,,,,,,1500,,,,,,,,,,,,,,,,,,,,,,,,,,,-1,ic_it0322,,,,,,,,,,,,,,,,,,,,,,0,1
8624,"Xmas Boy",,,100,,5,,,1,,,1,,,,,1,,,1,1,,,,,1,,2,1,1,99,1,,,,,30,,100,Sex=0,,,,,,,,,,,,,,,,,,,,,,,,,,,,,1,1,0,,,,,,,,,,,,,,,,,60*1000,1000,,,,,,,,,,AddEffect(25001),,,,,,ic_task1094b,,,,,,,,,,,,,,,,,,,,,,0,
8625,"Xmas Girl",,,100,,5,,,1,,,1,,,,,1,,,1,1,,,,,1,,2,1,1,99,1,,,,,30,,100,Sex=1,,,,,,,,,,,,,,,,,,,,,,,,,,,,,1,1,0,,,,,,,,,,,,,,,,,60*1000,1000,,,,,,,,,,AddEffect(25002),,,,,,ic_task1094b,,,,,,,,,,,,,,,,,,,,,,0,
8626,"Golden Ghost",,,100,,5,,,1,,,1,,,,,1,,,1,1,,,,,1,,2,1,1,99,1,,,,,30,,100,,,,,,,,,,,,,,,,,,,,,,,,,,,,,,1,1,0,,,,,,,,,,,,,,,,,60*1000,1000,,,,,,,,,,AddEffect(25004),,,,,,ic_task1094b,,,,,,,,,,,,,,,,,,,,,,0,
8627,Garfield,,,50,,5,,,,,,,,,,,,,1,1,1,0,0,1,,1,,2,,1,1,0,,0,,,1000,,,,,,,,,,,,,,,,,7121,,,,,,,,,,,use_begin,use_loop,use_end,,2,1,0,,,,,,1500,,,,,,,,,,,,,,,,,,,,,,,,,,,-1,ic_pet011,,,,,,,,,,,,,,,,,,,,,,0,1
8628,"Red Bull",,,50,,5,,,,,,,,,,,,,1,1,1,0,0,1,,1,,2,,1,1,0,,0,,,1000,,,,,,,,,,,,,,,,,7122,,,,,,,,,,,use_begin,use_loop,use_end,,2,1,0,,,,,,1500,,,,,,,,,,,,,,,,,,,,,,,,,,,-1,ic_pet012,,,,,,,,,,,,,,,,,,,,,,0,1
8629,"test ride 25",,,52,,5,,,,,,4,,,,,,,1,1,1,0,1,1,,1,1,2,,,,,,,,,30,,3000,,,,,,,,,,,,,,,60,2001,,,,,,,,,,use_begin,use_loop,use_end,,2,1,,,,,,,1000,,,,,,,,,,,,,,,,,,,,,,Ride,,,,,-1,ic_ride_025,ride025a;ride025a,ride025b;ride025b,ride025c;ride025c,ride025d;ride025d,,,,,,,,mon_touming,root,,,,,,,,,0,1
8630,"test ride 26",,,52,,5,,,,,,4,,,,,,,1,1,1,0,1,1,,1,1,2,,,,,,,,,30,,3000,,,,,,,,,,,,,,,60,2001,,,,,,,,,,use_begin,use_loop,use_end,,2,1,,,,,,,1000,,,,,,,,,,,,,,,,,,,,,,Ride,,,,,-1,ic_ride_026,ride026a;ride026a,ride026b;ride026b,ride026c;ride026c,ride026d;ride026d,,,,,,,,mon_touming,root,,,,,,,,,0,1
8631,"test ride 27",,,52,,5,,,,,,4,,,,,,,1,1,1,0,1,1,,1,1,2,,,,,,,,,1,,3000,,,,,,,,,,,,,,,60,2001,,,,,,,,,,use_begin,use_loop,use_end,,2,1,,,,,,,1000,,,,,,,,,,,,,,,,,,,,,,Ride,,,,,-1,ic_ride_027,ride027;ride027,ride027;ride027,ride027;ride027,ride027;ride027,,,,,,,,eff_ridelev10,root,,,,,,,,,0,1
8632,"Love Heart Card",,,100,,5,,,1,,,2,,,,,1,,1,1,1,1,,1,2066,1,,2,1,1,99,1,,,,,10,,100,HaveTypeEffect(2035)=0&&HaveTypeEffect(2043)=0&&HaveTypeEffect(2066)=0&&HaveTypeEffect(2278)=0&&HaveTypeEffect(2046)=0&&HaveTypeEffect(2047)=0&&HaveTypeEffect(2045)=0,,,,,,,,,,,,,,,,,,,,,,,,,,,,,1,1,0,,,,,,,,,,,,,,,,,60*1000,1000,,,,,,,,,,"AddEffect(2415,10,60)",,,,,,ic_im013,,,,,,,,,,,,,,,,,,,,,1,0,
8633,"Aura of Five Elements Star (1 hour)",,,100,,5,,,1,,,2,,,,,1,,1,1,1,1,,1,,1,,2,1,1,99,1,,,,,10,,100,,,,,,,,,,,,,,,,,,,,,,,,,,,,,,1,2,0,,,,,,,,,,,,,,,,,60*1000,1000,,,,,,,,,,"AddEffect(2416,10,60)",,,,,,ic_it4901_b,,,,,,,,,,,,,,,,,,,,,1,0,
8634,"Sky Blue Magic Bead",,,53,,5,,,,,,5,,,,,1,,1,1,1,,,1,,1,,2,0,1,1,1,,,,,83334,,900000,,,,,,,,,,,,,,,2;9,0.7,4,5,,,,,,,,,,,,1,1,0,,,,,,,,,,,,,,,,,1000,1000,,,,,,,,,,,,,,,,ic_it6211,,,,,,,,,,,,,,,,,,,,,,0,
8635,"Jade Green Magic Bead",,,53,,5,,,,,,6,,,,,1,,1,1,1,,,1,,1,,2,0,1,1,1,,,,,250000,,900000,,,,,,,,,,,,,,,2;9,0.5,5,6,,,,,,,,,,,,1,1,0,,,,,,,,,,,,,,,,,1000,1000,,,,,,,,,,,,,,,,ic_it6212,,,,,,,,,,,,,,,,,,,,,,0,
8636,"Plantium Magic Bead",,,53,,5,,,,,,7,,,,,1,,1,1,1,,,1,,1,,2,0,1,1,1,,,,,333500,,900000,,,,,,,,,,,,,,,2;9,0.01,6,7,,,,,,,,,,,,1,1,0,,,,,,,,,,,,,,,,,1000,1000,,,,,,,,,,,,,,,,ic_it6213,,,,,,,,,,,,,,,,,,,,,,0,
8637,"TOT Small Stone",,,96,,5,,,,,,1,,,,,,,1,1,1,0,0,1,,1,,0,,,,,,,,,22256,,10000000,,,,,,,,,,,,,,,14;16,20,,,,,,,,,,,,,,,,,,,,,,,,,,,,,,,,,,,,,,,,,,,,,,,,,-2,ic_it35751,,,,,,,,,,,,,,,,,,,,,,0,
8638,"TOT Medium Stone",,,96,,5,,,,,,1,,,,,,,1,1,1,0,0,1,,1,,0,,,,,,,,,33378,,10000000,,,,,,,,,,,,,,,17;18,15,,,,,,,,,,,,,,,,,,,,,,,,,,,,,,,,,,,,,,,,,,,,,,,,,-2,ic_it35752,,,,,,,,,,,,,,,,,,,,,,0,
8639,"TOT Large Stone",,,96,,5,,,,,,1,,,,,,,1,1,1,0,0,1,,1,,0,,,,,,,,,44456,,10000000,,,,,,,,,,,,,,,19;20,13,,,,,,,,,,,,,,,,,,,,,,,,,,,,,,,,,,,,,,,,,,,,,,,,,-2,ic_it35753,,,,,,,,,,,,,,,,,,,,,,0,
8640,"Intimity Pill 100",,,100,,5,,,40,,,1,,,,,1,,1,1,1,0,,,,1,,2,1,1,99,1,,,,,25000,50,100,,,,,,,,,,,,,,,,,,,,,,,,,,,,,,1,1,11,CanAddClose(10000)=1,,,,,,,,,,,,,,,,60*60*1000,1000,,,,,,,,,,,AddPetClose(10000),,,,,ic_im008,,,,,,,,,,,,,,,,,,,,,,0,
8641,WizardS,,,100,,5,,,,,,2,,,,,1,,1,1,1,0,,1,2007,1,,2,1,1,99,1,,,,,3,10,100,HaveTypeEffect(2500)=0,,,,,,,,,,,,,,,,,,,,,,,,,,,,,1,1,0,,,,,,,,,,,,,,,,,30*60*1000,1000,,,,,,,,,,AddEffect(2500),,,,,,ic_WizardbuffPDMG,,,,,,,,,,,,,,,,,,,,,1,0,
8642,MonkS,,,100,,5,,,,,,2,,,,,1,,1,1,1,0,,1,2007,1,,2,1,1,99,1,,,,,3,10,100,HaveTypeEffect(2501)=0,,,,,,,,,,,,,,,,,,,,,,,,,,,,,1,1,0,,,,,,,,,,,,,,,,,30*60*1000,1000,,,,,,,,,,"AddEffect(2501,30,30)",,,,,,ic_MonkbuffDef,,,,,,,,,,,,,,,,,,,,,1,0,
8643,AssassinS,,,100,,5,,,,,,2,,,,,1,,1,1,1,0,,1,2007,1,,2,1,1,99,1,,,,,3,10,100,HaveTypeEffect(2502)=0,,,,,,,,,,,,,,,,,,,,,,,,,,,,,1,1,0,,,,,,,,,,,,,,,,,30*60*1000,1000,,,,,,,,,,AddEffect(2502),,,,,,ic_Sinbuffdodge,,,,,,,,,,,,,,,,,,,,,1,0,
8644,FairyS,,,100,,5,,,,,,2,,,,,1,,1,1,1,0,,1,2007,1,,2,1,1,99,1,,,,,3,10,100,HaveTypeEffect(2503)=0,,,,,,,,,,,,,,,,,,,,,,,,,,,,,1,1,0,,,,,,,,,,,,,,,,,30*60*1000,1000,,,,,,,,,,AddEffect(2503),,,,,,ic_FairybuffHP,,,,,,,,,,,,,,,,,,,,,1,0,
8645,TamerS,,,100,,5,,,,,,2,,,,,1,,1,1,1,0,,1,2007,1,,2,1,1,99,1,,,,,3,10,100,HaveTypeEffect(2504)=0,,,,,,,,,,,,,,,,,,,,,,,,,,,,,1,1,0,,,,,,,,,,,,,,,,,30*60*1000,1000,,,,,,,,,,AddEffect(2504),,,,,,ic_Tamerbuff,,,,,,,,,,,,,,,,,,,,,1,0,
,,,,,,,,,,,,,,,,,,,,,,,,,,,,,,,,,,,,,,,,,,,,,,,,,,,,,,,,,,,,,,,,,,,,,,,,,,,,,,,,,,,,,,,,,,,,,,,,,,,,,,,,,,,,,,,,,,,,,,,,,,,,,,,,
8646,"Monk lvl 10",,,80,,5,,,1,,,,,,,,,,1,0,1,0,1,,,1,,2,,1,1,1,,,,,30,,,,,,,,,,,,,,,,,,v=1;s=9|i=104;c=4;smL=20;b=2;att=4|i=113;c=4;smL=20;att=4;b=2|i=122;c=4;smL=20;att=4;b=2|i=268;c=4;smL=20;att=4;b=2|i=295;c=4;smL=20;att=4;b=2|i=322;c=4;smL=20;att=4;b=2|i=34;c=4;smL=20;att=4;b=2|i=24;c=4;smL=20;att=4;b=2|i=8652;c=6;b=2,,,,,,,,,,,,,,,,,,,,,,,,,,,,,,,,,,,,,,,,,,,,,,,,,-2,gold_egg,,,,,,,,,,,,,,,,,,,,,,0,
8647,"Fairy lvl 10",,,80,,5,,,1,,,,,,,,,,1,0,1,0,1,,,1,,2,,1,1,1,,,,,30,,,,,,,,,,,,,,,,,,v=1;s=9|i=131;c=4;smL=20;b=2;att=4|i=140;c=4;smL=20;b=2;att=4|i=149;c=4;smL=20;b=2;att=4|i=277;c=4;smL=20;b=2;att=4|i=304;c=4;smL=20;b=2;att=4|i=331;c=4;smL=20;b=2;att=4|i=44;c=4;smL=20;b=2;att=4|i=54;c=4;smL=20;b=2;att=4|i=8653;c=6;b=2,,,,,,,,,,,,,,,,,,,,,,,,,,,,,,,,,,,,,,,,,,,,,,,,,-2,gold_egg,,,,,,,,,,,,,,,,,,,,,,0,
8648,"Wizard lvl 10",,,80,,5,,,1,,,,,,,,,,1,0,1,0,1,,,1,,2,,1,1,1,,,,,30,,,,,,,,,,,,,,,,,,v=1;s=9|i=77;c=4;smL=20;b=2;att=4|i=86;c=4;smL=20;b=2;att=4|i=95;c=4;smL=20;b=2;att=4|i=259;c=4;smL=20;b=2;att=4|i=286;c=4;smL=20;b=2;att=4|i=313;c=4;smL=20;b=2;att=4|i=4;c=4;smL=20;b=2;att=4|i=14;c=4;smL=20;b=2;att=4|i=8651;c=6;b=2,,,,,,,,,,,,,,,,,,,,,,,,,,,,,,,,,,,,,,,,,,,,,,,,,-2,gold_egg,,,,,,,,,,,,,,,,,,,,,,0,
8649,"Assassin lvl 10",,,80,,5,,,1,,,,,,,,,,1,0,1,0,1,,,1,,2,,1,1,1,,,,,30,,,,,,,,,,,,,,,,,,v=1;s=9|i=575;c=4;smL=20;b=2;att=4|i=584;c=4;smL=20;b=2;att=4|i=593;c=4;smL=20;b=2;att=4|i=602;c=4;smL=20;b=2;att=4|i=611;c=4;smL=20;b=2;att=4|i=620;c=4;smL=20;b=2;att=4|i=550;c=4;smL=20;b=2;att=4|i=560;c=4;smL=20;b=2;att=4|i=8654;c=6;b=2,,,,,,,,,,,,,,,,,,,,,,,,,,,,,,,,,,,,,,,,,,,,,,,,,-2,gold_egg,,,,,,,,,,,,,,,,,,,,,,0,
8650,"Tamer lvl 10",,,80,,5,,,1,,,,,,,,,,1,0,1,0,1,,,1,,2,,1,1,1,,,,,30,,,,,,,,,,,,,,,,,,v=1;s=9|i=653;c=4;smL=20;b=2;att=4|i=662;c=4;smL=20;b=2;att=4|i=671;c=4;smL=20;b=2;att=4|i=680;c=4;smL=20;b=2;att=4|i=689;c=4;smL=20;b=2;att=4|i=698;c=4;smL=20;b=2;att=4|i=628;c=4;smL=20;b=2;att=4|i=638;c=4;smL=20;b=2;att=4|i=8655;c=6;b=2,,,,,,,,,,,,,,,,,,,,,,,,,,,,,,,,,,,,,,,,,,,,,,,,,-2,gold_egg,,,,,,,,,,,,,,,,,,,,,,0,
,,,,,,,,,,,,,,,,,,,,,,,,,,,,,,,,,,,,,,,,,,,,,,,,,,,,,,,,,,,,,,,,,,,,,,,,,,,,,,,,,,,,,,,,,,,,,,,,,,,,,,,,,,,,,,,,,,,,,,,,,,,,,,,,
8651,"Wizard lvl 70",,,80,,5,,,70,,,6,,,,,,,1,0,1,0,1,,,1,,2,,1,1,1,,,,,30,,,,,,,,,,,,,,,,,,v=1;s=8|i=12;smL=20;c=6;t=604800;b=2|i=22;smL=20;c=6;t=604800;b=2|i=83;smL=20;c=6;t=604800;b=2|i=92;smL=20;c=6;t=604800;b=2|i=101;smL=20;c=6;t=604800;b=2|i=265;smL=20;c=6;t=604800;b=2|i=292;smL=20;c=6;t=604800;b=2|i=319;smL=20;c=6;t=604800;b=2,,,,,,,,,,,,,,,,,,,,,,,,,,,,,,,,,,,,,,,,,,,,,,,,,-2,ic_m_pack61,,,,,,,,,,,,,,,,,,,,,,0,
8652,"Monk lvl 70",,,80,,5,,,70,,,6,,,,,,,1,0,1,0,1,,,1,,2,,1,1,1,,,,,30,,,,,,,,,,,,,,,,,,v=1;s=8|i=32;smL=20;c=6;t=604800;b=2|i=42;smL=20;c=6;t=604800;b=2|i=110;smL=20;c=6;t=604800;b=2|i=119;smL=20;c=6;t=604800;b=2|i=128;smL=20;c=6;t=604800;b=2|i=274;smL=20;c=6;t=604800;b=2|i=301;smL=20;c=6;t=604800;b=2|i=328;smL=20;c=6;t=604800;b=2,,,,,,,,,,,,,,,,,,,,,,,,,,,,,,,,,,,,,,,,,,,,,,,,,-2,ic_m_pack61,,,,,,,,,,,,,,,,,,,,,,0,
8653,"Fairy lvl 70",,,80,,5,,,70,,,6,,,,,,,1,0,1,0,1,,,1,,2,,1,1,1,,,,,30,,,,,,,,,,,,,,,,,,v=1;s=8|i=52;smL=20;c=6;t=604800;b=2|i=62;smL=20;c=6;t=604800;b=2|i=137;smL=20;c=6;t=604800;b=2|i=146;smL=20;c=6;t=604800;b=2|i=155;smL=20;c=6;t=604800;b=2|i=283;smL=20;c=6;t=604800;b=2|i=310;smL=20;c=6;t=604800;b=2|i=337;smL=20;c=6;t=604800;b=2,,,,,,,,,,,,,,,,,,,,,,,,,,,,,,,,,,,,,,,,,,,,,,,,,-2,ic_m_pack61,,,,,,,,,,,,,,,,,,,,,,0,
8654,"Assassin lvl 70",,,80,,5,,,70,,,6,,,,,,,1,0,1,0,1,,,1,,2,,1,1,1,,,,,30,,,,,,,,,,,,,,,,,,v=1;s=8|i=558;smL=20;c=6;t=604800;b=2|i=568;smL=20;c=6;t=604800;b=2|i=581;smL=20;c=6;t=604800;b=2|i=590;smL=20;c=6;t=604800;b=2|i=599;smL=20;c=6;t=604800;b=2|i=608;smL=20;c=6;t=604800;b=2|i=617;smL=20;c=6;t=604800;b=2|i=626;smL=20;c=6;t=604800;b=2,,,,,,,,,,,,,,,,,,,,,,,,,,,,,,,,,,,,,,,,,,,,,,,,,-2,ic_m_pack61,,,,,,,,,,,,,,,,,,,,,,0,
8655,"Tamer lvl 70",,,80,,5,,,70,,,6,,,,,,,1,0,1,0,1,,,1,,2,,1,1,1,,,,,30,,,,,,,,,,,,,,,,,,v=1;s=8|i=636;smL=20;c=6;t=604800;b=2|i=646;smL=20;c=6;t=604800;b=2|i=659;smL=20;c=6;t=604800;b=2|i=668;smL=20;c=6;t=604800;b=2|i=677;smL=20;c=6;t=604800;b=2|i=686;smL=20;c=6;t=604800;b=2|i=695;smL=20;c=6;t=604800;b=2|i=704;smL=20;c=6;t=604800;b=2,,,,,,,,,,,,,,,,,,,,,,,,,,,,,,,,,,,,,,,,,,,,,,,,,-2,ic_m_pack61,,,,,,,,,,,,,,,,,,,,,,0,
,,,,,,,,,,,,,,,,,,,,,,,,,,,,,,,,,,,,,,,,,,,,,,,,,,,,,,,,,,,,,,,,,,,,,,,,,,,,,,,,,,,,,,,,,,,,,,,,,,,,,,,,,,,,,,,,,,,,,,,,,,,,,,,,
8656,"Stamina 100",,,100,1,5,,,1,,,,,,,,1,,,1,1,0,1,,,1,,2,1,1,20,1,,,,,250,,,Party=1||Party=2,,,,,,,,,,,,,,,,,,,,,,,,,,,,,1,1,0,,,,,,,,,,,,,,,,,10000,1000,1,,,,,,,,,AddEnergy(100),,,,,,ic_it4899,,,,,,,,,,,,,,,,,,,,,,,
8657,"Stamina 100 (VIP)",,,100,1,5,,,1,,,,,,,,1,,,1,1,0,1,,,1,,2,1,1,20,1,,,,,250,,,Party=1||Party=2,,,,,,,,,,,,,,,,,,,,,,,,,,,,,1,1,0,,,,,,,,,,,,,,,,,1000,1000,1,,,,,,,,,AddEnergy(100),,,,,,ic_it4899,,,,,,,,,,,,,,,,,,,,,,,
,,,,,,,,,,,,,,,,,,,,,,,,,,,,,,,,,,,,,,,,,,,,,,,,,,,,,,,,,,,,,,,,,,,,,,,,,,,,,,,,,,,,,,,,,,,,,,,,,,,,,,,,,,,,,,,,,,,,,,,,,,,,,,,,
8658,TOTCard1,,,58,,5,,,,,,,,,,,,,,1,1,1,1,1,,1,,2,1,1,1,1,,,,,25000,,,,,,,,,,,,,,,,,,$L:tot_card1$,,,,,,,,,,,,,,,,,,,,,,,,,,,,,,,,,,,,,,,,,,,,,,,,,,ic_it3018,,,,,,,,,,,,,,,,,,,,,,,
8659,TOTCard2,,,58,,5,,,,,,,,,,,,,,1,1,1,1,1,,1,,2,1,1,1,1,,,,,25000,,,,,,,,,,,,,,,,,,$L:tot_card2$,,,,,,,,,,,,,,,,,,,,,,,,,,,,,,,,,,,,,,,,,,,,,,,,,,ic_it3018,,,,,,,,,,,,,,,,,,,,,,,
,,,,,,,,,,,,,,,,,,,,,,,,,,,,,,,,,,,,,,,,,,,,,,,,,,,,,,,,,,,,,,,,,,,,,,,,,,,,,,,,,,,,,,,,,,,,,,,,,,,,,,,,,,,,,,,,,,,,,,,,,,,,,,,,
8660,"Kick All Players",,,80,,5,,,1,,,,,,,,,,1,0,1,0,1,,,1,,2,,1,1,1,,,,,30,,,,,,,,,,,,,,,,,,v=1;s=9|i=104;c=4;smL=20;b=2;att=4|i=113;c=4;smL=20;att=4;b=2|i=122;c=4;smL=20;att=4;b=2|i=268;c=4;smL=20;att=4;b=2|i=295;c=4;smL=20;att=4;b=2|i=322;c=4;smL=20;att=4;b=2|i=34;c=4;smL=20;att=4;b=2|i=24;c=4;smL=20;att=4;b=2|i=8652;c=6;b=2,,,,,,,,,,,,,,,,,,,,,,,,,,,,,,,,,,,,,,,,,,,,,,,,,-2,gold_egg,,,,,,,,,,,,,,,,,,,,,,0,
,,,,,,,,,,,,,,,,,,,,,,,,,,,,,,,,,,,,,,,,,,,,,,,,,,,,,,,,,,,,,,,,,,,,,,,,,,,,,,,,,,,,,,,,,,,,,,,,,,,,,,,,,,,,,,,,,,,,,,,,,,,,,,,,
8661,"TOT Event Point",,,,,5,,,,,,3,,,,,1,,1,1,1,0,1,,,1,,0,1,1,99,0,,,,,30,,,,,,,,,,,,,,,,,,,,,,,,,,,,,,,,,,,,,,,,,,,,,,,,,,,,,,,,,,,,,,,,,,,-1,ic_TOTEP,,,,,,,,,,,,,,,,,,,,,,0,
8662,"Pvp pill (50 k)",,,24,,5,,,40,,,1,,,,,1,,1,1,1,1,,,,1,,2,1,1,99,1,,,,,1000,,100,,,,,,,,,,,,,,,,,,,,,,,,,,,,,,1,1,0,,,,,,,,,,,,,,,,,1000,1000,,,,,,,,,,"AddUserDungeonScore(0,50000)",,,,,-2,ic_it0013,,,,,,,,,,,,,,,,,,,,,,0,
8663,"Pvp pill (100 k)",,,24,,5,,,40,,,1,,,,,1,,1,1,1,1,,,,1,,2,1,1,99,1,,,,,1000,,100,,,,,,,,,,,,,,,,,,,,,,,,,,,,,,1,1,0,,,,,,,,,,,,,,,,,1000,1000,,,,,,,,,,"AddUserDungeonScore(0,100000)",,,,,-2,ic_it0014,,,,,,,,,,,,,,,,,,,,,,0,
8664,"Lion King",,,50,,5,,,,,,,,,,,,,1,1,1,0,0,1,,1,,2,,1,1,0,,0,,,1000,,,,,,,,,,,,,,,,,7160,,,,,,,,,,,use_begin,use_loop,use_end,,2,1,0,,,,,,1500,,,,,,,,,,,,,,,,,,,,,,,,,,,-1,ic_mon147,,,,,,,,,,,,,,,,,,,,,,0,1
,,,,,,,,,,,,,,,,,,,,,,,,,,,,,,,,,,,,,,,,,,,,,,,,,,,,,,,,,,,,,,,,,,,,,,,,,,,,,,,,,,,,,,,,,,,,,,,,,,,,,,,,,,,,,,,,,,,,,,,,,,,,,,,,
8665,"ECC Key",,,,,5,,,,,,,,,,,,,,0,0,0,1,,,1,,0,1,1,1,0,,1,,,3,,,,,,,,,,,,,,,,,,,,,,,,,,,,,,,,,,,,,,,,,,,,,,,,,,,,,,,,,,,,,,,,,,,-2,ic_it0303,,,,,,,,,,,,,,,,,,,,,,,
,,,,,,,,,,,,,,,,,,,,,,,,,,,,,,,,,,,,,,,,,,,,,,,,,,,,,,,,,,,,,,,,,,,,,,,,,,,,,,,,,,,,,,,,,,,,,,,,,,,,,,,,,,,,,,,,,,,,,,,,,,,,,,,,
8666,"Donator cave",,,101,,5,,,,,,,,,,,1,,,1,1,,,,,1,,2,1,1,1,1,,,,,1000,,100,IsAttackState=0&&IsInDungeon=0,,,,,,,,,,,,,,,,,,,,,,,,,,,,,2,1,0,,,,,,3000,,,,,,,,,,,5000,1000,,,,,,,,,,"Teleport(1415,2353,1)",,,,,,ic_it0751,,,,,,,,,,,,,,,,,,,,,,0,
8667,"Instant HP 50k (5)",,,20,1,5,,,1,,,5,,,,,1,,1,1,1,1,1,1,,1,,2,1,5,99,1,,,,,26700,,10,,,,,,,,,,,,,,,,,,,,,,,,,,,,,,1,1,0,,,,,,,,,,,,,,,,,10000,1000,4,,,,,,,,,AddHp(50000),,,,,-2,ic_iu0035,,,,,,,,,,,,,,,,,,,,,,0,
8668,"Instant HP 50k (10)",,,20,1,5,,,1,,,5,,,,,1,,1,1,1,1,1,1,,1,,2,1,10,99,1,,,,,53400,,10,,,,,,,,,,,,,,,,,,,,,,,,,,,,,,1,1,0,,,,,,,,,,,,,,,,,10000,1000,4,,,,,,,,,AddHp(50000),,,,,-2,ic_iu0035,,,,,,,,,,,,,,,,,,,,,,0,
8669,"Instant HP 50k (50)",,,20,1,5,,,1,,,5,,,,,1,,1,1,1,1,1,1,,1,,2,1,50,99,1,,,,,267000,,10,,,,,,,,,,,,,,,,,,,,,,,,,,,,,,1,1,0,,,,,,,,,,,,,,,,,10000,1000,4,,,,,,,,,AddHp(50000),,,,,-2,ic_iu0035,,,,,,,,,,,,,,,,,,,,,,0,
8670,"Instant HP 50k (99)",,,20,1,5,,,1,,,5,,,,,1,,1,1,1,1,1,1,,1,,2,1,99,99,1,,,,,528660,,10,,,,,,,,,,,,,,,,,,,,,,,,,,,,,,1,1,0,,,,,,,,,,,,,,,,,10000,1000,4,,,,,,,,,AddHp(50000),,,,,-2,ic_iu0035,,,,,,,,,,,,,,,,,,,,,,0,
8671,"Forgiveness Pill (XL)",,,99,,5,,,1,,,2,,,,,1,,1,1,1,,,1,,1,,2,1,1,99,1,,,,,1000,,100,,,,,,,,,,,,,,,,,,,,,,,,,,,,,,1,1,1,"GetPk!= 0",,,,,,,,,,,,,,,,60*60*1000,1000,19,,,,,,,,,AddPk(-1500),,,,,,ic_it080,,,,,,,,,,,,,,,,,,,,,,0,
8672,"Forgiveness Pill (XXL)",,,99,,5,,,1,,,2,,,,,1,,1,1,1,,,1,,1,,2,1,1,99,1,,,,,1000,,100,,,,,,,,,,,,,,,,,,,,,,,,,,,,,,1,1,1,"GetPk!= 0",,,,,,,,,,,,,,,,60*60*1000,1000,19,,,,,,,,,AddPk(-3000),,,,,,ic_it080,,,,,,,,,,,,,,,,,,,,,,0,
8673,"WH Stone",,,200,,5,,,,,,,,,,,1,,,1,1,1,1,,,1,,2,1,1,5,1,,,,,3,,,,,,,,,,,,,,,,,,,,,,,,,,,,,,,,2,1,,,,,,,1000,,,,,,,,,,,,,,,,,,,,,,AddNpc(5023),,,,,-1,ic_it6322,,,,,,,,,,,,,,,,,,,,,,0,1
8674,"Event Pet Cap",,,,,5,,,,,,,,,,,,,,0,1,1,1,,,1,,2,1,1,1,1,,,,,3,,,,,,,,,,,,,,,,,,,,,,,,,,,,,practice,practice,,2,1,1,CanTame=1,,,200,,5000,,,,,,,,,,,2000,1500,,1000,1000,,,,,,,,,,,,-1,ic_it057,,,,,,,,,,,,,,,,,,,,,,0,
8675,"Event Pet Cap1",,,,,5,,,,,,,,,,,,,,0,0,1,1,,,1,,2,1,1,1,1,,,,,3,,,,,,,,,,,,,,,,,,,,,,,,,,,,use_begin,use_loop,use_end,,2,1,1,"NpcId=7166 && CanCapture=1",,,200,,5000,,,,,,,,,,,2000,1500,,1000,1000,,,,,,,,ChangeUnderling,,,,-2,ic_it057,,,,,,,,,,,,,,,,,,,,,,0,
8679,"Event Pet Cap1",,,,,5,,,,,,,,,,,,,,0,0,1,1,,,1,,2,1,1,1,1,,,,,3,,,,,,,,,,,,,,,,,,,,,,,,,,,,,practice,use_end,,2,1,1,"NpcId=7166 && CanCapture=1",,,200,,5000,,,,,,,,,,,2000,1500,,1000,1000,,,,,,,,ChangeUnderling,,,,-2,ic_it057,,,,,,,,,,,,,,,,,,,,,,0,
,,,,,,,,,,,,,,,,,,,,,,,,,,,,,,,,,,,,,,,,,,,,,,,,,,,,,,,,,,,,,,,,,,,,,,,,,,,,,,,,,,,,,,,,,,,,,,,,,,,,,,,,,,,,,,,,,,,,,,,,,,,,,,,,
8676,"Lotto Box (S)",,,98,,5,,,,,,1,,,,,1,,1,1,1,0,1,,,1,,2,,,,,,,,,30,,,,,,,,,,,,,,,,,,192,,,,,,,,,,,,,,1,1,,,,,,,,,,,,,,,,,,,,,,,,,,,,,,,,,,-2,ic_lotto,,,,,,,,,,,,,,,,,,,,,,,
8677,"Lotto Box (M)",,,98,,5,,,,,,1,,,,,1,,1,1,1,0,1,,,1,,2,,,,,,,,,30,,,,,,,,,,,,,,,,,,193,,,,,,,,,,,,,,1,1,,,,,,,,,,,,,,,,,,,,,,,,,,,,,,,,,,-2,ic_lotto,,,,,,,,,,,,,,,,,,,,,,,
8678,"Lotto Box (L)",,,98,,5,,,,,,1,,,,,1,,1,1,1,0,1,,,1,,2,,,,,,,,,30,,,,,,,,,,,,,,,,,,194,,,,,,,,,,,,,,1,1,,,,,,,,,,,,,,,,,,,,,,,,,,,,,,,,,,-2,ic_lotto,,,,,,,,,,,,,,,,,,,,,,,
