商店ID,店主人ID,商店名字,出售价格比率,出售物品,出售稀有物品
ID,OwnerID,Name,SaleAgio,SaleItems,LimitItems
1,52,$L:npc_shop_zahuodian1$,1,4;5;6;7;;3455;3456;3457;,
2,3102;199;3407,$L:npc_shop_fomengshuidian$,1,5537;5538;5539,

3,3007;200;3305;3203,$L:npc_shop_emeishuidian$,1,200;202,
4,128;372,$L:npc_shop_xinshoucunshuidian$,1,357;358;359;360;361;362;363;364;1080;3455;3456;3457;34;35;560;561;44;45;14;15;638;639;,
5,102;288;5422,$L:npc_shop_chengdushuidian$,1,363;364;365;366;367;368;1080;1089;3455;3456;3457;36;562;46;16;640;,
6,109;371;391;5040,$L:npc_shop_xinshoucunwuqi$,1,76;77;85;86;94;95;103;104;112;113;121;122;130;131;139;140;148;149;574;575;583;584;592;593;652;653;661;662;670;671;14;15;34;35;44;45;560;561;638;639;1080;801,
7,408;49,$L:npc_shop_yunlingshancunshuidian$,1,359;360;361;362;363;364;1080;3455;3456;3457;35;36;561;562;45;46;15;16;639;640;,
8,371;287;363,$L:npc_shop_yunlingshanchengduwuqi$,1,77;78;86;87;95;96;104;105;113;114;122;123;131;132;140;141;149;150;575;576;584;585;593;594;653;654;662;663;671;672;4;24;54;550;628;5;25;55;551;629;6;26;56;552;630;1080;801,
9,394,$L:npc_shop_ciyunshuidian$,1,363;364;365;366;367;368;1080;3455;3456;3457;,
10,411,$L:npc_shop_guihuashanshuidian$,1,367;368;369;370;371;372;1080;3455;3456;3457;,
11,406,$L:npc_shop_yunlingshengwang$,20,"259,6,0,0,2,14,1,1,1,0,0;
268,6,0,0,2,14,1,1,2,0,0;
277,6,0,0,2,14,1,1,3,0,0;
602,6,0,0,2,14,1,1,4,0,0;
680,6,0,0,2,14,1,1,5,0,0;
286,6,0,0,2,14,1,2,1,0,0;
295,6,0,0,2,14,1,2,2,0,0;
304,6,0,0,2,14,1,2,3,0,0;
611,6,0,0,2,14,1,2,4,0,0;
689,6,0,0,2,14,1,2,5,0,0;
313,6,0,0,2,14,2,3,1,0,0;
322,6,0,0,2,14,2,3,2,0,0;
331,6,0,0,2,14,2,3,3,0,0;
620,6,0,0,2,14,2,3,4,0,0;
698,6,0,0,2,14,2,3,5,0,0;
16,156,0,0,2,14,3,4,1,0,0;
36,156,0,0,2,14,3,4,2,0,0;
46,156,0,0,2,14,3,4,3,0,0;
562,156,0,0,2,14,3,4,4,0,0;
640,156,0,0,2,14,3,4,5,0,0;",
12,407,$L:npc_shop_huzhuashanshengwang$,20,"259,6,0,0,2,17,1,1,1,0,0;
268,6,0,0,2,17,1,1,2,0,0;
277,6,0,0,2,17,1,1,3,0,0;
602,6,0,0,2,17,1,1,4,0,0;
680,6,0,0,2,17,1,1,5,0,0;
286,6,0,0,2,17,1,2,1,0,0;
295,6,0,0,2,17,1,2,2,0,0;
304,6,0,0,2,17,1,2,3,0,0;
611,6,0,0,2,17,1,2,4,0,0;
689,6,0,0,2,17,1,2,5,0,0;
313,6,0,0,2,17,2,3,1,0,0;
322,6,0,0,2,17,2,3,2,0,0;
331,6,0,0,2,17,2,3,3,0,0;
620,6,0,0,2,17,2,3,4,0,0;
698,6,0,0,2,17,2,3,5,0,0;
16,156,0,0,2,17,3,4,1,0,0;
36,156,0,0,2,17,3,4,2,0,0;
46,156,0,0,2,17,3,4,3,0,0;
562,156,0,0,2,17,3,4,4,0,0;
640,156,0,0,2,17,3,4,5,0,0;",
13,413,$L:npc_shop_chengdushengwang$,20,"260,6,0,0,2,15,2,1,1,0,0;
269,6,0,0,2,15,2,1,2,0,0;
278,6,0,0,2,15,2,1,3,0,0;
603,6,0,0,2,15,2,1,4,0,0;
681,6,0,0,2,15,2,1,5,0,0;
239,54,0,0,2,15,3,1,6,0,0;
287,6,0,0,2,15,3,2,1,0,0;
296,6,0,0,2,15,3,2,2,0,0;
305,6,0,0,2,15,3,2,3,0,0;
612,6,0,0,2,15,3,2,4,0,0;
690,6,0,0,2,15,3,2,5,0,0;
239,56,0,0,2,15,3,2,6,0,0;",
14,414,$L:npc_shop_ciyunsishengwang$,10,"314,6,0,0,2,16,2,1,1,0,0;
323,6,0,0,2,16,2,1,2,0,0;
332,6,0,0,2,16,2,1,3,0,0;
621,6,0,0,2,16,2,1,4,0,0;
699,6,0,0,2,16,2,1,5,0,0;
240,54,0,0,2,16,3,1,6,0,0;
17,156,0,0,2,16,3,2,1,0,0;
37,156,0,0,2,16,3,2,2,0,0;
47,156,0,0,2,16,3,2,3,0,0;
563,156,0,0,2,16,3,2,4,0,0;
641,156,0,0,2,16,3,2,5,0,0;
240,56,0,0,2,16,3,2,6,0,0;
78,6,0,0,2,16,3,3,1,0,0;
105,6,0,0,2,16,3,3,2,0,0;
132,6,0,0,2,16,3,3,3,0,0;
576,6,0,0,2,16,3,3,4,0,0;
654,6,0,0,2,16,3,3,5,0,0;
96,6,0,0,2,16,3,4,1,0,0;
123,6,0,0,2,16,3,4,2,0,0;
150,6,0,0,2,16,3,4,3,0,0;
594,6,0,0,2,16,3,4,4,0,0;
672,6,0,0,2,16,3,4,5,0,0;",
15,319;326,$L:npc_shop_xueshancunshuidian$,1,367;368;369;370;371;372;1080;3455;3456;3457;,
16,432,$L:npc_shop_tanlan$,1,1082;1083;1084;1085;64;65;71;70;72;73;570;571;648;649;,
17,4333,$L:npc_shop_qingluoshanshuidian$,1,369;370;371;372;373;374;1080;3455;3456;3457;,
18,4439,$L:npc_shop_qingluoshanshuidian$,1,371;372;373;374;375;376;1080;3455;3456;3457;,
19,4447,$L:npc_shop_mangcangshan$,10,"814,0,0,0,2,29,5,1,1,0,0;
820,0,0,0,2,29,5,1,2,0,0;
826,0,0,0,2,29,5,1,3,0,0;
832,0,0,0,2,29,5,1,4,0,0;
838,0,0,0,2,29,5,1,5,0,0;
812,0,0,0,2,29,10,2,1,0,0;
818,0,0,0,2,29,10,2,2,0,0;
824,0,0,0,2,29,10,2,3,0,0;
830,0,0,0,2,29,10,2,4,0,0;
836,0,0,0,2,29,10,2,5,0,0;",
20,4456;4457;4458,$L:npc_shop_yuebing$,1,3475;3476;3477,
21,443;,$L:npc_shop_tianhuacundama$,1,357;358;359;360;361;362;363;364;1080;1400;1401;1402;1403;1404;1405;4319;4320,
22,444;,$L:npc_shop_yuchengcuncundama$,1,357;358;359;360;361;362;363;364;1080;1400;1401;1402;1403;1404;1405;4319;4320,
23,445;,$L:npc_shop_chengduchengdama$,1,363;364;365;366;367;368;1080;1089;1400;1401;1402;1403;1404;1405;4319;4320,
24,4101,$L:npc_shop_guihuashanshengwang$,20,"261,6,0,0,2,26,1,1,1,0,0;
270,6,0,0,2,26,1,1,2,0,0;
279,6,0,0,2,26,1,1,3,0,0;
604,6,0,0,2,26,1,1,4,0,0;
682,6,0,0,2,26,1,1,5,0,0;
288,6,0,0,2,26,2,2,1,0,0;
297,6,0,0,2,26,2,2,2,0,0;
306,6,0,0,2,26,2,2,3,0,0;
613,6,0,0,2,26,2,2,4,0,0;
691,6,0,0,2,26,2,2,5,0,0;
315,6,0,0,2,26,3,3,1,0,0;
324,6,0,0,2,26,3,3,2,0,0;
333,6,0,0,2,26,3,3,3,0,0;
622,6,0,0,2,26,3,3,4,0,0;
700,6,0,0,2,26,3,3,5,0,0;",
25,4201,$L:npc_shop_xueshanshengwang$,20,"8,156,0,0,2,22,2,1,1,0,0;
28,156,0,0,2,22,2,1,2,0,0;
58,156,0,0,2,22,2,1,3,0,0;
554,156,0,0,2,22,2,1,4,0,0;
632,156,0,0,2,22,2,1,5,0,0;
241,54,0,0,2,22,1,1,6,0,0;
18,156,0,0,2,22,3,2,1,0,0;
38,156,0,0,2,22,3,2,2,0,0;
48,156,0,0,2,22,3,2,3,0,0;
564,156,0,0,2,22,3,2,4,0,0;
642,156,0,0,2,22,3,2,5,0,0;
241,56,0,0,2,22,1,2,6,0,0;",
26,4512,$L:npc_shop_tianhuacunshengwang$,5,"85,1,0,0,2,13,1,1,1,0,0;
112,1,0,0,2,13,1,1,2,0,0;
139,1,0,0,2,13,1,1,3,0,0;
583,1,0,0,2,13,1,1,4,0,0;
661,1,0,0,2,13,1,1,5,0,0;
94,1,0,0,2,13,2,2,1,0,0;
121,1,0,0,2,13,2,2,2,0,0;
148,1,0,0,2,13,2,2,3,0,0;
592,1,0,0,2,13,2,2,4,0,0;
670,1,0,0,2,13,2,2,5,0,0;
76,1,0,0,2,13,3,3,1,0,0;
103,1,0,0,2,13,3,3,2,0,0;
130,1,0,0,2,13,3,3,3,0,0;
574,1,0,0,2,13,3,3,4,0,0;
652,1,0,0,2,13,3,3,5,0,0;
5,153,0,0,2,13,5,4,1,0,0;
25,153,0,0,2,13,5,4,2,0,0;
55,153,0,0,2,13,5,4,3,0,0;
551,153,0,0,2,13,5,4,4,0,0;
629,153,0,0,2,13,5,4,5,0,0;",
27,4511,$L:npc_shop_niuer$,1,3513;4964;4965;4966;4967;4968;,
28,2904,$L:npc_war$,1,3744;3745,
29,4520;4521;4522,$L:npc_card$,100,3746;3747;3748;3749;3750,
30,4643;,$L:npc_newyear$,20,"20600,0,0,0,2,0,0,1,1,0,50000;
20599,0,0,0,2,0,0,1,2,0,50000;
20593,0,0,0,2,0,0,1,3,0,50000;
20591,0,0,0,2,0,0,1,4,0,50000;
12586,0,0,0,2,0,0,1,5,0,50000;
12584,0,0,0,2,0,0,1,6,0,1000000;
12585,0,0,0,2,0,0,2,1,0,1000000;
20592,0,0,0,2,0,0,2,2,0,1000000;
20594,0,0,0,2,0,0,2,3,0,1000000;
20598,0,0,0,2,0,0,2,4,0,1000000;
20601,0,0,0,2,0,0,2,5,0,1000000;
32575,0,0,0,2,0,0,2,6,0,1000000;
30367,0,0,0,2,0,0,3,1,0,1000000;
30362,0,0,0,2,0,0,3,2,0,1000000;
30361,0,0,0,2,0,0,3,3,0,1000000;
30352,0,0,0,2,0,0,3,4,0,1000000;
30349,0,0,0,2,0,0,3,5,0,1000000;
20602,0,0,0,2,0,0,3,6,0,1000000;",
31,4646;,$L:npc_shop_daijiachang$,1,373;374;375;376;3900;3901;3902;3903;3455;3456;3457;1080,
32,4647;,$L:npc_shop_30-40wuqidian$,1,7;27;57;553;631;801;17;37;47;563;641;,
33,4648;325,$L:npc_shop_40-50wuqidian$,1,8;28;58;554;632;801;18;38;48;564;642;,
34,4649;,$L:npc_shop_50-60daijiachang$,1,9;29;59;555;633;801;19;39;49;565;643;,
35,4650,$L:npc_shop_qingluoshanshengwang$,20,"262,6,0,0,2,28,1,1,1,0,0;
271,6,0,0,2,28,1,1,2,0,0;
280,6,0,0,2,28,1,1,3,0,0;
605,6,0,0,2,28,1,1,4,0,0;
683,6,0,0,2,28,1,1,5,0,0;
289,6,0,0,2,28,2,2,1,0,0;
298,6,0,0,2,28,2,2,2,0,0;
307,6,0,0,2,28,2,2,3,0,0;
614,6,0,0,2,28,2,2,4,0,0;
692,6,0,0,2,28,2,2,5,0,0;
316,6,0,0,2,28,3,3,1,0,0;
325,6,0,0,2,28,3,3,2,0,0;
334,6,0,0,2,28,3,3,3,0,0;
623,6,0,0,2,28,3,3,4,0,0;
701,6,0,0,2,28,3,3,5,0,0;",
36,4415,$L:npc_shop_maxiongshengwang$,20,"242,54,0,0,2,31,2,1,1,0,0;
242,56,0,0,2,31,2,1,2,0,0;
19,156,0,0,2,31,3,2,1,0,0;
39,156,0,0,2,31,3,2,2,0,0;
49,156,0,0,2,31,3,2,3,0,0;
565,156,0,0,2,31,3,2,4,0,0;
643,156,0,0,2,31,3,2,5,0,0;",
37,4651,$L:npc_shop_daijiacangshengwang$,20,"263,6,0,0,2,30,2,1,1,0,0;
272,6,0,0,2,30,2,1,2,0,0;
281,6,0,0,2,30,2,1,3,0,0;
606,6,0,0,2,30,2,1,4,0,0;
684,6,0,0,2,30,2,1,5,0,0;
290,6,0,0,2,30,3,2,1,0,0;
299,6,0,0,2,30,3,2,2,0,0;
308,6,0,0,2,30,3,2,3,0,0;
615,6,0,0,2,30,3,2,4,0,0;
693,6,0,0,2,30,3,2,5,0,0;
317,6,0,0,2,30,4,3,1,0,0;
326,6,0,0,2,30,4,3,2,0,0;
335,6,0,0,2,30,4,3,3,0,0;
624,6,0,0,2,30,4,3,4,0,0;
702,6,0,0,2,30,4,3,5,0,0;
243,54,0,0,2,30,5,4,1,0,0;
243,56,0,0,2,30,5,4,2,0,0;
20,156,0,0,2,30,6,5,1,0,0;
40,156,0,0,2,30,6,5,2,0,0;
50,156,0,0,2,30,6,5,3,0,0;
566,156,0,0,2,30,6,5,4,0,0;
644,156,0,0,2,30,6,5,5,0,0;",
38,2065,$L:npc_shop_chujijingji$,2,359;360;361;362;363;364;365;366;367;368;369;370;,
39,2066,$L:npc_shop_gaojijingji$,2,369;370;371;372;373;374;375;376;3900;3901;3902;3903;3904;3905;,
40,4652,$L:npc_shop_yunyoushangren15$,1,361;362;363;364;365;366;,
41,4653,$L:npc_shop_yunyoushangren30$,1,365;366;367;368;369;370;,
42,4654,$L:npc_shop_yunyoushangren45$,1,369;370;371;372;373;374;375;376;,
43,4563,$L:npc_shop_guild$,1,"4035,0,0,86400,2,0,0,1,1,3000,0;
4036,0,0,86400,2,0,0,1,2,3000,0;
4037,0,0,86400,2,0,0,1,3,6000,0;
4038,0,0,86400,2,0,0,1,4,6000,0;
4039,0,0,86400,2,0,0,1,5,9000,0;
4042,0,0,86400,2,0,0,1,6,9000,0;
4043,0,0,86400,2,0,0,2,1,12000,0;",
44,4562,$L:npc_shop_guildTaskShop$,1,3993;,
45,4755;,$L:npc_shop_EUandAMTaskShop$,1,4110;4928;,
46,4700,$L:npc_shop_Battle$,1,,"4111,0,0,86400,2,0,0,1,1,0,0:600:1;
4112,0,0,86400,2,0,0,1,2,0,0:300:1;
4113,0,0,86400,2,0,0,1,3,0,0:600:1;"
47,4863;5215,$L:npc_shop_70$,20,"841,0,0,0,2,33,4,1,1,0,0;
847,0,0,0,2,33,4,1,2,0,0;
853,0,0,0,2,33,4,1,3,0,0;
859,0,0,0,2,33,4,1,4,0,0;
865,0,0,0,2,33,4,1,5,0,0;
842,0,0,0,2,33,7,2,1,0,0;
848,0,0,0,2,33,7,2,2,0,0;
854,0,0,0,2,33,7,2,3,0,0;
860,0,0,0,2,33,7,2,4,0,0;
866,0,0,0,2,33,7,2,5,0,0;
840,0,0,0,2,33,10,3,1,0,0;
846,0,0,0,2,33,10,3,2,0,0;
852,0,0,0,2,33,10,3,3,0,0;
858,0,0,0,2,33,10,3,4,0,0;
864,0,0,0,2,33,10,3,5,0,0;",
48,4864,$L:npc_shop_70$,20,"843,0,0,0,2,33,2,1,1,0,0;
849,0,0,0,2,33,2,1,2,0,0;
855,0,0,0,2,33,2,1,3,0,0;
861,0,0,0,2,33,2,1,4,0,0;
867,0,0,0,2,33,2,1,5,0,0;
844,0,0,0,2,33,3,2,1,0,0;
850,0,0,0,2,33,3,2,2,0,0;
856,0,0,0,2,33,3,2,3,0,0;
862,0,0,0,2,33,3,2,4,0,0;
868,0,0,0,2,33,3,2,5,0,0;
845,0,0,0,2,33,5,3,1,0,0;
851,0,0,0,2,33,5,3,2,0,0;
857,0,0,0,2,33,5,3,3,0,0;
863,0,0,0,2,33,5,3,4,0,0;
869,0,0,0,2,33,5,3,5,0,0;
841,0,0,0,2,33,6,4,1,0,0;
847,0,0,0,2,33,6,4,2,0,0;
853,0,0,0,2,33,6,4,3,0,0;
859,0,0,0,2,33,6,4,4,0,0;
865,0,0,0,2,33,6,4,5,0,0;
842,0,0,0,2,33,8,5,1,0,0;
848,0,0,0,2,33,8,5,2,0,0;
854,0,0,0,2,33,8,5,3,0,0;
860,0,0,0,2,33,8,5,4,0,0;
866,0,0,0,2,33,8,5,5,0,0;
840,0,0,0,2,33,9,6,1,0,0;
846,0,0,0,2,33,9,6,2,0,0;
852,0,0,0,2,33,9,6,3,0,0;
858,0,0,0,2,33,9,6,4,0,0;
864,0,0,0,2,33,9,6,5,0,0;",
49,4884,$L:npc_shop_mangcangshan$,10,"813,0,0,0,2,29,2,1,1,0,0;
819,0,0,0,2,29,2,1,2,0,0;
825,0,0,0,2,29,2,1,3,0,0;
831,0,0,0,2,29,2,1,4,0,0;
837,0,0,0,2,29,2,1,5,0,0;
814,0,0,0,2,29,3,2,1,0,0;
820,0,0,0,2,29,3,2,2,0,0;
826,0,0,0,2,29,3,2,3,0,0;
832,0,0,0,2,29,3,2,4,0,0;
838,0,0,0,2,29,3,2,5,0,0;
815,0,0,0,2,29,4,3,1,0,0;
821,0,0,0,2,29,4,3,2,0,0;
827,0,0,0,2,29,4,3,3,0,0;
833,0,0,0,2,29,4,3,4,0,0;
839,0,0,0,2,29,4,3,5,0,0;
811,0,0,0,2,29,5,4,1,0,0;
817,0,0,0,2,29,5,4,2,0,0;
823,0,0,0,2,29,5,4,3,0,0;
829,0,0,0,2,29,5,4,4,0,0;
835,0,0,0,2,29,5,4,5,0,0;",
50,4883;4925,$L:npc_shop_mangcangshan$,1,4114;4133;4135;4131;4143,4218:600:1;
51,4865,$L:npc_shop_jingji$,20,"21182,0,0,0,3,41,6,1,1,0,10000;
21188,0,0,0,2,41,6,1,2,0,10000;
21194,0,0,0,2,41,6,1,3,0,10000;
21200,0,0,0,2,41,6,1,4,0,10000;
21206,0,0,0,2,41,6,1,5,0,10000;
12956,0,0,0,2,41,5,1,6,0,20000;
21183,0,0,0,2,41,7,2,1,0,10000;
21189,0,0,0,2,41,7,2,2,0,10000;
21195,0,0,0,2,41,7,2,3,0,10000;
21201,0,0,0,2,41,7,2,4,0,10000;
21207,0,0,0,2,41,7,2,5,0,10000;
12957,0,0,0,2,41,5,2,6,0,20000;
21184,0,0,0,2,41,8,3,1,0,15000;
21190,0,0,0,2,41,8,3,2,0,15000;
21196,0,0,0,2,41,8,3,3,0,15000;
21202,0,0,0,2,41,8,3,4,0,15000;
21208,0,0,0,2,41,8,3,5,0,15000;
12958,0,0,0,2,41,5,3,6,0,20000;
21180,0,0,0,2,41,9,4,1,0,15000;
21186,0,0,0,2,41,9,4,2,0,15000;
21192,0,0,0,2,41,9,4,3,0,15000;
21198,0,0,0,2,41,9,4,4,0,15000;
21204,0,0,0,2,41,9,4,5,0,15000;
12959,0,0,0,2,41,5,4,6,0,20000;
21181,0,0,0,2,41,9,5,1,0,15000;
21187,0,0,0,2,41,10,5,2,0,15000;
21193,0,0,0,2,41,10,5,3,0,15000;
21199,0,0,0,2,41,10,5,4,0,15000;
21205,0,0,0,2,41,10,5,5,0,15000;
21179,0,0,0,2,41,10,6,1,0,18000;
21185,0,0,0,2,41,10,6,2,0,18000;
21191,0,0,0,2,41,10,6,3,0,18000;
21197,0,0,0,2,41,10,6,4,0,18000;
21203,0,0,0,2,41,10,6,5,0,18000;
12921,0,0,0,2,41,10,7,1,0,150000;
12926,0,0,0,2,41,10,7,2,0,150000;
12918,0,0,0,2,41,10,7,3,0,150000;
12924,0,0,0,2,41,10,7,4,0,150000;
12923,0,0,0,2,41,10,7,5,0,150000;
12922,0,0,0,2,41,10,8,1,0,150000;
12920,0,0,0,2,41,10,8,2,0,150000;
12919,0,0,0,2,41,10,8,3,0,150000;
12917,0,0,0,2,41,10,8,4,0,150000;
12925,0,0,0,2,41,10,8,5,0,150000;",
52,4892,$L:npc_shop_yunlingshanchengduwuqi$,1,77;78;86;87;95;96;104;105;113;114;122;123;131;132;140;141;149;150;575;576;584;585;593;594;653;654;662;663;671;672;4;24;54;550;628;5;25;55;551;629;6;26;56;552;630;1080;801,
53,4906;4923,$L:npc_shop_xinshoucunshuidian$,1,357;358;359;360;361;362;363;364;1080;3455;3456;3457;1082;1083;1084;1085;34;35;560;561;44;45;14;15;638;639;4828;,
54,4907;4908,$L:npc_shop_yunlingshancunshuidian$,1,359;360;361;362;363;364;1080;3455;3456;3457;1082;1083;1084;1085;35;36;561;562;45;46;15;16;639;640;4828;,
55,4909;,$L:npc_shop_chengduchengdama$,1,363;364;365;366;367;368;1080;1089;1084;1085;36;562;46;16;640;4828;,
56,4924,$L:npc_shop_jingji$,20,"21921,0,0,0,2,44,10,1,1,0,500000;
21922,0,0,0,2,44,10,1,2,0,500000;
21924,0,0,0,2,44,10,1,3,0,500000;
32102,0,0,0,2,44,10,2,1,0,500000;
32103,0,0,0,2,44,10,2,2,0,500000;
32104,0,0,0,2,44,10,2,3,0,500000;
32105,0,0,0,2,44,10,2,4,0,500000;
20443,0,0,0,2,44,6,3,1,0,200000;
20444,0,0,0,2,44,7,3,2,0,200000;
20445,0,0,0,2,44,8,3,3,0,200000;
20446,0,0,0,2,44,9,3,4,0,200000;
12933,0,0,0,2,44,10,3,5,0,200000;
12945,0,0,0,2,44,10,4,1,0,500000;
12947,0,0,0,2,44,10,4,2,0,500000;
12949,0,0,0,2,44,10,4,3,0,500000;
12951,0,0,0,2,44,10,4,4,0,500000;
12953,0,0,0,2,44,10,4,5,0,500000;
12946,0,0,0,2,44,10,5,1,0,500000;
12948,0,0,0,2,44,10,5,2,0,500000;
12950,0,0,0,2,44,10,5,3,0,500000;
12952,0,0,0,2,44,10,5,4,0,500000;
12954,0,0,0,2,44,10,5,5,0,500000;",
57,4925,$L:npc_shop_mangcangshan$,1,4299;4300;4301;4302;4303,
58,4926,$L:npc_newyear$,1,"4275,0,0,86400,0,0,0,1,1,0,0;
4276,0,0,86400,0,0,0,1,2,0,0;",
59,4928,$L:npc_newyear$,1,"4420,0,0,0,0,0,0,1,1,0,0;",
60,4966,$L:npc_shop_yuelongcunyaoshi$,1,3902;3903;3904;3905;3906;3907;1080;,
61,4967;5365,$L:npc_shop_yuelongcuntiejiang$,1,10;20;30;40;60;50;556;566;634;644;801;,
62,4922,$L:npc_shop_VNandAMTaskShop$,1,4466;4464;,
63,5039,$L:npc_shop_niuer$,30,3513;3514,
64,5042,$L:npc_shop_jingjiyuenan$,20,"21493,0,0,0,2,43,5,1,1,0,2000;
21499,0,0,0,2,43,5,1,2,0,2000;
21505,0,0,0,2,43,5,1,3,0,2000;
21511,0,0,0,2,43,5,1,4,0,2000;
21517,0,0,0,2,43,5,1,5,0,2000;
21494,0,0,0,2,43,5,2,1,0,2000;
21500,0,0,0,2,43,5,2,2,0,2000;
21506,0,0,0,2,43,5,2,3,0,2000;
21512,0,0,0,2,43,5,2,4,0,2000;
21518,0,0,0,2,43,5,2,5,0,2000;
21495,0,0,0,2,43,6,3,1,0,2000;
21501,0,0,0,2,43,6,3,2,0,2000;
21507,0,0,0,2,43,6,3,3,0,2000;
21513,0,0,0,2,43,6,3,4,0,2000;
21519,0,0,0,2,43,6,3,5,0,2000;
21490,0,0,0,2,43,7,4,1,0,2000;
21497,0,0,0,2,43,7,4,2,0,2000;
21503,0,0,0,2,43,7,4,3,0,2000;
21509,0,0,0,2,43,7,4,4,0,2000;
21515,0,0,0,2,43,7,4,5,0,2000;
21492,0,0,0,2,43,8,5,1,0,2000;
21498,0,0,0,2,43,8,5,2,0,2000;
21504,0,0,0,2,43,8,5,3,0,2000;
21510,0,0,0,2,43,8,5,4,0,2000;
21516,0,0,0,2,43,8,5,5,0,2000;
21491,0,0,0,2,43,9,6,1,0,2000;
21496,0,0,0,2,43,9,6,2,0,2000;
21502,0,0,0,2,43,9,6,3,0,2000;
21508,0,0,0,2,43,9,6,4,0,2000;
21514,0,0,0,2,43,9,6,5,0,2000;",
65,5041,$L:npc_shop_70_yuenan$,20,"841,0,0,0,2,33,2,1,1,0,0;
847,0,0,0,2,33,2,1,2,0,0;
853,0,0,0,2,33,2,1,3,0,0;
859,0,0,0,2,33,2,1,4,0,0;
865,0,0,0,2,33,2,1,5,0,0;
842,0,0,0,2,33,4,2,1,0,0;
848,0,0,0,2,33,4,2,2,0,0;
854,0,0,0,2,33,4,2,3,0,0;
860,0,0,0,2,33,4,2,4,0,0;
866,0,0,0,2,33,4,2,5,0,0;
840,0,0,0,2,33,6,3,1,0,0;
846,0,0,0,2,33,6,3,2,0,0;
852,0,0,0,2,33,6,3,3,0,0;
858,0,0,0,2,33,6,3,4,0,0;
864,0,0,0,2,33,6,3,5,0,0;",
66,5043,$L:npc_shop_shenseng$,1,4504;4507;4510;4513,
67,5060,$L:npc_shop_guild_mars$,1,"4035,0,0,86400,2,0,0,1,1,3000,0;
4036,0,0,86400,2,0,0,1,2,3000,0;
4037,0,0,86400,2,0,0,1,3,6000,0;
4038,0,0,86400,2,0,0,1,4,6000,0;
4039,0,0,86400,2,0,0,1,5,9000,0;
4042,0,0,86400,2,0,0,1,6,9000,0;",
68,5061,$L:npc_shop_korean_cb$,1,4561;4562;4563;4564;4565;4566;4567;4568;4569;4570;,
69,4793,$L:npc_shop_korean_cb$,1,4756;4757,
70,4794,$L:npc_shop_korean_cb$,1,"1153,0,0,3600,0,0,0,1,1,0,0;",
71,4905,$L:npc_shop_MARS_tianhuacun$,1,357;358;359;360;361;362;1080;1082;1083;34;35;560;561;44;45;14;15;638;639;25;551;55;5;629;363;364;1084;1085;3455;3456;3457;4828;,
72,4893,$L:npc_shop_MARS_meirilingli$,1,5716;,
73,5242,$L:npc_shop_fuhuyuenan$,1,3513;,
74,5244;5245;,$L:npc_shop_xueshancunshuidian$,1,367;368;369;370;371;372;1084;1085;1080;3455;3456;3457;4828;,
75,5246,$L:npc_shop_guihuashanshuidian$,1,367;368;369;370;371;372;1084;1085;1080;3455;3456;3457;4828;,
76,5302,$L:npc_shop_koreanbaoshishop$,1,"3705,0,0,0,2,0,0,1,1,0,150;
3518,0,0,0,2,0,0,1,2,0,150;
3528,0,0,0,2,0,0,1,3,0,150;
3538,0,0,0,2,0,0,1,4,0,150;
3548,0,0,0,2,0,0,1,5,0,150;
3553,0,0,0,2,0,0,1,6,0,150;
3564,0,0,0,2,0,0,2,1,0,150;
3574,0,0,0,2,0,0,2,2,0,150;",
77,5303;,$L:npc_shop_KOREANTaskShop$,1,4110;,
78,5304;,$L:npc_shop_KOREANTaskShop$,1,4598;,
79,5502,$L:npc_shop_lijiangcunshuidian$,1,363;364;365;366;367;368;1080;3455;3456;3457;,
80,5545,$L:npc_shop_lijiangcunwuqidian$,1,77;78;86;87;95;96;104;105;113;114;122;123;131;132;140;141;149;150;575;576;584;585;593;594;653;654;662;663;671;672;4;24;54;550;628;5;25;55;551;629;6;26;56;552;630;1080;801,
81,5532;,$L:npc_shop_tangzhouTaskShop$,1,3705;3518;3528;3538;3548;3553;3564;3574;,
82,5335,$L:npc_shop_feilibinBaoshiTaskShop$,1,5560;5561;5562;5563;5564;5565;5566,
83,5336,$L:npc_shop_feilibinBaoshiTaskShop$,1,5567;5568;5569;5570;5571;5572,
84,5337,$L:npc_shop_feilibinBaoshiTaskShop$,1,5573;5574,
85,5350,$L:npc_shop_eu2yearTaskShop$,1,5588;,
86,2073,$L:npc_shop_baoxueguanliyuan$,2,3902;3903;3904;3905;3906;3907;3908;3909;3910;3911,
87,5505,$L:npc_shop_cunminglisan$,1,5014;,
88,5364,$L:npc_shop_superpve$,1,375;376;3900;3901;3902;3903;3904;3905;3906;3907;1080;,
89,5419,$L:npc_shop_philppines_cb$,1,4757,
90,433,$L:npc_shop_taiwan_meirilingli$,1,5716;,
91,5665,$L:npc_shop_jingshiyuyaoshi$,1,367;368;369;370;371;372;1084;1085;1080;3455;3456;3457;4828;,
92,5663,$L:npc_shop_jingshiyutiejiang$,1,7;27;57;553;631;801;17;37;47;563;641;,
93,5666,$L:npc_shop_zizhulinyaoshi$,1,367;368;369;370;371;372;1084;1085;1080;3455;3456;3457;4828;,
94,5664,$L:npc_shop_zizhulintiejiang$,1,7;27;57;553;631;801;17;37;47;563;641;,
95,6057,$L:npc_shop_jingji$,1,"6126,0,0,0,0,0,0,1,1,0,50;
12914,0,0,0,0,0,0,1,2,0,10000;
12915,0,0,0,0,0,0,1,3,0,20000;
12916,0,0,0,0,0,0,1,4,0,30000;
21938,0,0,0,0,0,0,1,5,0,100000;",
96,10014,$L:npc_shop_jingji$,20,"21479,0,0,0,2,43,10,1,1,0,20000;
21481,0,0,0,2,43,10,1,2,0,20000;
21482,0,0,0,2,43,10,1,3,0,20000;
21483,0,0,0,2,43,10,1,4,0,20000;
21484,0,0,0,2,43,10,1,5,0,20000;
21485,0,0,0,2,43,10,2,1,0,20000;
21486,0,0,0,2,43,10,2,2,0,20000;
21487,0,0,0,2,43,10,2,3,0,20000;
21488,0,0,0,2,43,10,2,4,0,20000;
21757,0,0,0,2,43,10,2,5,0,20000;
21489,0,0,0,2,43,10,3,1,0,2000;
21475,0,0,0,2,43,10,4,1,0,10000;
21476,0,0,0,2,43,10,4,2,0,10000;
21477,0,0,0,2,43,10,4,3,0,10000;
21478,0,0,0,2,43,10,4,4,0,10000;
21595,0,0,0,2,43,10,5,1,0,20000;
21594,0,0,0,2,43,10,5,2,0,20000;",
97,10037,$L:npc_shop_jingji$,20,"21647,0,0,0,2,44,7,1,1,0,200000;
21599,0,0,0,2,44,7,1,2,0,200000;
21617,0,0,0,2,44,7,1,3,0,200000;
21611,0,0,0,2,44,7,1,4,0,200000;
21654,0,0,0,2,44,7,1,5,0,200000;
21648,0,0,0,2,44,7,2,1,0,200000;
21600,0,0,0,2,44,7,2,2,0,200000;
21618,0,0,0,2,44,7,2,3,0,200000;
21612,0,0,0,2,44,7,2,4,0,200000;
21655,0,0,0,2,44,7,2,5,0,200000;
21649,0,0,0,2,44,8,3,1,0,200000;
21601,0,0,0,2,44,8,3,2,0,200000;
21619,0,0,0,2,44,8,3,3,0,200000;
21613,0,0,0,2,44,8,3,4,0,200000;
21656,0,0,0,2,44,8,3,5,0,200000;
21645,0,0,0,2,44,8,4,1,0,200000;
21597,0,0,0,2,44,8,4,2,0,200000;
21615,0,0,0,2,44,8,4,3,0,200000;
21609,0,0,0,2,44,8,4,4,0,200000;
21652,0,0,0,2,44,8,4,5,0,200000;
21646,0,0,0,2,44,10,5,1,0,200000;
21598,0,0,0,2,44,10,5,2,0,200000;
21616,0,0,0,2,44,10,5,3,0,200000;
21610,0,0,0,2,44,10,5,4,0,200000;
21653,0,0,0,2,44,10,5,5,0,200000;
21644,0,0,0,2,44,10,6,1,0,200000;
21596,0,0,0,2,44,10,6,2,0,200000;
21614,0,0,0,2,44,10,6,3,0,200000;
21608,0,0,0,2,44,10,6,4,0,200000;
21651,0,0,0,2,44,10,6,5,0,200000;
21745,0,0,0,2,44,10,7,1,0,400000;
12927,0,0,0,2,44,10,7,2,0,400000;
21751,0,0,0,2,44,10,7,3,0,400000;
21753,0,0,0,2,44,10,7,4,0,400000;
21755,0,0,0,2,44,10,7,5,0,400000;
21746,0,0,0,2,44,10,8,1,0,400000;
21750,0,0,0,2,44,10,8,2,0,400000;
21752,0,0,0,2,44,10,8,3,0,400000;
21754,0,0,0,2,44,10,8,4,0,400000;
21756,0,0,0,2,44,10,8,5,0,400000;",
98,10033,$L:npc_shop_jingji$,20,"32200,0,0,0,2,45,10,1,1,0,600000;
32206,0,0,0,2,45,10,1,2,0,600000;
32212,0,0,0,2,45,10,1,3,0,600000;
32218,0,0,0,2,45,10,1,4,0,600000;
32224,0,0,0,2,45,10,1,5,0,600000;
8142,0,0,0,2,45,10,1,6,0,200000;
32201,0,0,0,2,45,10,2,1,0,600000;
32207,0,0,0,2,45,10,2,2,0,600000;
32213,0,0,0,2,45,10,2,3,0,600000;
32219,0,0,0,2,45,10,2,4,0,600000;
32225,0,0,0,2,45,10,2,5,0,600000;
8141,0,0,0,2,45,10,2,6,0,200000;
32202,0,0,0,2,45,10,3,1,0,600000;
32208,0,0,0,2,45,10,3,2,0,600000;
32214,0,0,0,2,45,10,3,3,0,600000;
32220,0,0,0,2,45,10,3,4,0,600000;
32226,0,0,0,2,45,10,3,5,0,600000;
8140,0,0,0,2,45,10,3,6,0,200000;
32203,0,0,0,2,45,10,4,1,0,600000;
32209,0,0,0,2,45,10,4,2,0,600000;
32215,0,0,0,2,45,10,4,3,0,600000;
32221,0,0,0,2,45,10,4,4,0,600000;
32227,0,0,0,2,45,10,4,5,0,600000;
8138,0,0,0,2,45,10,4,6,0,200000;
32204,0,0,0,2,45,10,5,1,0,600000;
32210,0,0,0,2,45,10,5,2,0,600000;
32216,0,0,0,2,45,10,5,3,0,600000;
32222,0,0,0,2,45,10,5,4,0,600000;
32228,0,0,0,2,45,10,5,5,0,600000;
8136,0,0,0,2,45,10,5,6,0,200000;
32205,0,0,0,2,45,10,6,1,0,600000;
32211,0,0,0,2,45,10,6,2,0,600000;
32217,0,0,0,2,45,10,6,3,0,600000;
32223,0,0,0,2,45,10,6,4,0,600000;
32229,0,0,0,2,45,10,6,5,0,600000;
8135,0,0,0,2,45,10,6,6,0,200000;
32265,0,0,0,2,45,10,7,1,0,600000;
32266,0,0,0,2,45,10,7,2,0,600000;
3594,0,0,0,2,45,5,7,3,0,100000;
3519,0,0,0,2,45,5,7,4,0,100000;
12934,0,0,0,2,45,6,8,1,0,400000;
12935,0,0,0,2,45,6,8,2,0,400000;
12936,0,0,0,2,45,6,8,3,0,400000;
12937,0,0,0,2,45,6,8,4,0,400000;
12938,0,0,0,2,45,6,8,5,0,400000;
12939,0,0,0,2,45,6,8,6,0,400000;",

