,合成名称,需要技能,需要技能等级,产品,材料,材料个数,颜色概率,说明,卷轴学习
ID,Name,NeedSkill,NeedSkillLev,Product,Materials,MaterialNums,ColorRate,Desc,NeedActive
1,$L:compose_1$,14,1,2025,2000;,2,,,0
2,$L:compose_2$,14,1,2026,2001;,2,,,0
3,$L:compose_3$,14,1,2023,2000;2002;,2;2,,,0
4,$L:compose_4$,14,1,2024,2001;2002;,2;2,,,0
5,$L:compose_5$,14,2,2041,2003;,2,,,0
6,$L:compose_6$,14,2,2042,2004;,2,,,0
7,$L:compose_7$,14,2,2039,2003;2005,2;2,,,0
8,$L:compose_8$,14,2,2040,2004;2005,2;2,,,0
9,$L:compose_9$,14,3,2045,2006;,2,,,0
10,$L:compose_10$,14,3,2046,2007;,2,,,0
11,$L:compose_11$,14,3,2043,2006;2008;,2;2,,,0
12,$L:compose_12$,14,3,2044,2007;2008;,2;2,,,0
13,$L:compose_13$,14,4,2049,2009;,2,,,0
14,$L:compose_14$,14,4,2050,2010;,2,,,0
15,$L:compose_15$,14,4,2047,2009;2011;,2;2,,,0
16,$L:compose_16$,14,4,2048,2010;2011;,2;2,,,0
17,$L:compose_17$,14,5,2053,2012;,2,,,0
18,$L:compose_18$,14,5,2054,2013;,2,,,0
19,$L:compose_19$,14,5,2051,2012;2014,2;2,,,0
20,$L:compose_20$,14,5,2052,2013;2014,2;2,,,0
21,$L:compose_21$,15,1,2030,2015;,2,,,0
22,$L:compose_22$,15,1,2031,2016;,2,,,0
23,$L:compose_23$,15,2,2055,2017;,2,,,0
24,$L:compose_24$,15,2,2056,2018;,2,,,0
25,$L:compose_25$,15,3,2057,2019;,2,,,0
26,$L:compose_26$,15,3,2058,2020;,2,,,0
27,$L:compose_27$,15,4,2059,2021;,2,,,0
28,$L:compose_28$,15,4,2060,2022;,2,,,0
29,$L:compose_29$,15,5,2061,2063;,2,,,0
30,$L:compose_30$,15,5,2062,2064;,2,,,0
31,$L:compose_31$,24,1,8416,500;2015;3725,2;2;2,,,0
32,$L:compose_32$,24,3,8417,502;2019;3729,2;2;2,,,0
33,$L:compose_33$,24,5,8418,504;514;2063;3733,2;2;2;4,,,0
34,$L:compose_34$,24,7,8420,506;516,2;2,,,0
35,$L:compose_35$,24,7,8421,508;518,2;2,,,0
41,$L:compose_41$,24,2,8445,501;2017;3727,2;2;2,,,0
42,$L:compose_42$,24,4,8446,503;2021;3731,2;2;2,,,0
43,$L:compose_43$,24,6,8447,505;515;4877;4882,2;2;2;4,,,0
44,$L:compose_44$,24,7,8448,507;517,2;2,,,0
45,$L:compose_45$,24,7,8449,509;519,2;2,,,0
51,$L:compose_51$,24,2,8425,501;2018;3728,2;2;2,,,0
52,$L:compose_52$,24,4,8426,503;2022;3732,2;2;2,,,0
53,$L:compose_53$,24,6,8427,505;515;4878;4883,2;2;2;4,,,0
54,$L:compose_54$,24,7,8428,507;517,2;2,,,0
55,$L:compose_55$,24,7,8429,509;519,2;2,,,0
61,$L:compose_61$,24,2,8435,501;2018;3728,2;2;2,,,0
62,$L:compose_62$,24,4,8436,503;2022;3732,2;2;2,,,0
63,$L:compose_63$,24,6,8437,505;515;4878;4883,2;2;2;4,,,0
64,$L:compose_64$,24,7,8438,507;517,2;2,,,0
65,$L:compose_65$,24,7,8439,509;519,2;2,,,0
71,$L:compose_71$,24,1,8465,500;2016;3726,2;2;2,,,0
72,$L:compose_72$,24,3,8466,502;2020;3730,2;2;2,,,0
73,$L:compose_73$,24,5,8467,504;514;2064;3734,2;2;2;4,,,0
74,$L:compose_74$,24,7,8468,506;516,2;2,,,0
75,$L:compose_75$,24,7,8469,508;518,2;2,,,0
76,$L:compose_76$,24,2,501,500,1,,,0
77,$L:compose_77$,24,3,502,500,1,,,0
78,$L:compose_78$,24,4,503,500,1,,,0
79,$L:compose_79$,24,5,504,500,1,,,0
80,$L:compose_80$,24,6,505,500,1,,,0
81,$L:compose_81$,24,7,506,500,1,,,0
82,$L:compose_82$,24,7,507,500,1,,,0
83,$L:compose_83$,24,7,508,500,1,,,0
84,$L:compose_84$,24,7,509,500,1,,,0
85,$L:compose_85$,24,2,511,510,1,,,0
86,$L:compose_86$,24,3,512,510,1,,,0
87,$L:compose_87$,24,4,513,510,1,,,0
88,$L:compose_88$,24,5,514,510,1,,,0
89,$L:compose_89$,24,6,515,510,1,,,0
90,$L:compose_90$,24,7,516,510,1,,,0
91,$L:compose_91$,24,7,517,510,1,,,0
92,$L:compose_92$,24,7,518,510,1,,,0
93,$L:compose_93$,24,7,519,510,1,,,0
94,$L:compose_94$,14,6,4887,4871,2,,,0
95,$L:compose_95$,14,6,4888,4872,2,,,0
96,$L:compose_96$,14,6,4889,4871;4873,2;2,,,0
97,$L:compose_97$,14,6,4890,4872;4873,2;2,,,0
98,$L:compose_98$,14,7,4893,4874,2,,,0
99,$L:compose_99$,14,7,4894,4875,2,,,0
100,$L:compose_100$,14,7,4895,4874;4876,2;2,,,0
101,$L:compose_101$,14,7,4896,4875;4876,2;2,,,0
102,$L:compose_102$,14,7,4900,4874;4876,2;2,,,1
103,$L:compose_103$,14,7,4901,4875;4876,2;2,,,1
104,$L:compose_104$,14,7,4899,4874;4875;4876,2;2;2,,,1
105,$L:compose_105$,15,6,4891,4877,2,,,0
106,$L:compose_106$,15,6,4892,4878,2,,,0
107,$L:compose_107$,15,7,4897,4879,2,,,0
108,$L:compose_108$,15,7,4898,4880,2,,,0
109,$L:compose_109$,15,7,4902,4879,4,,,1
110,$L:compose_110$,15,7,4903,4881,4,,,1
111,$L:compose_111$,15,7,4904,4879;4881,2;2,,,1
112,$L:compose_112$,15,7,4905,4880,4,,,1
113,$L:compose_113$,15,7,4906,4880;4881,2;2,,,1
114,$L:compose_114$,15,7,4907,4879;4880,2;2,,,1
115,$L:compose_115$,24,7,8496,512;521;4881;4884,2;2;2;4,,,0
116,$L:compose_116$,24,7,8497,514;522;4881;4884,2;2;2;4,,,1
117,$L:compose_117$,24,7,8498,516;523;4881;4884,2;2;2;4,,,1
118,$L:compose_118$,24,7,8476,512;521;4879;4885,2;2;2;4,,,0
119,$L:compose_119$,24,7,8477,514;522;4879;4885,2;2;2;4,,,1
120,$L:compose_120$,24,7,8478,516;523;4879;4885,2;2;2;4,,,1
121,$L:compose_121$,24,7,8486,512;521;4880;4886,2;2;2;4,,,0
122,$L:compose_122$,24,7,8487,514;522;4880;4886,2;2;2;4,,,1
123,$L:compose_123$,24,7,8488,516;523;4880;4886,2;2;2;4,,,1
124,$L:compose_31$,686,1,9919,406;403;8659;20039,25;25;20;1,,,0
125,$L:compose_31$,686,1,9920,406;403;8659;9138,25;25;20;1,,,0
126,$L:compose_31$,686,1,9921,406;403;8659;9162,25;25;20;1,,,0
127,$L:compose_31$,686,1,9922,406;403;8659;9164,25;25;20;1,,,0
128,$L:compose_31$,686,1,9923,406;403;8659;9170,25;25;20;1,,,0
129,$L:compose_31$,686,1,9924,406;403;8659;8719,25;25;20;1,,,0
130,$L:compose_31$,686,1,9925,406;403;8659;8817,25;25;20;1,,,0
131,$L:compose_31$,686,1,9926,406;403;8659;9167,25;25;20;1,,,0
132,$L:compose_31$,686,1,9927,406;403;8659;9823,25;25;20;1,,,0
133,$L:compose_31$,686,1,9928,406;403;8659;9824,25;25;20;1,,,0
134,$L:compose_31$,686,1,9929,406;403;8659;9827,25;25;20;1,,,0
135,$L:compose_31$,686,1,9930,406;403;8659;9579,25;25;20;1,,,0
136,$L:compose_31$,686,1,9931,406;403;8659;9581,25;25;20;1,,,0
137,$L:compose_31$,686,1,9932,406;403;8659;9172,25;25;20;1,,,0
138,$L:compose_31$,686,1,9933,406;403;8659;9832,25;25;20;1,,,0
139,$L:compose_31$,686,1,9934,406;403;8659;9833,25;25;20;1,,,0
140,$L:compose_31$,686,1,9935,406;403;8659;9836,25;25;20;1,,,0
141,$L:compose_31$,686,1,9936,406;403;8659;9837,25;25;20;1,,,0
142,$L:compose_31$,686,1,9937,406;403;8659;9839,25;25;20;1,,,0
143,$L:compose_31$,686,1,9938,406;403;8659;9846,25;25;20;1,,,0
144,$L:compose_124$,1417,1,9899,9904;9903;9913,1;1;5,,,0
145,$L:compose_124$,1417,1,9896,9904;9900;9910,1;1;5,,,0
146,$L:compose_124$,1417,1,9898,9904;9902;9912,1;1;5,,,0
147,$L:compose_124$,1417,1,9897,9904;9901;9911,1;1;5,,,0
148,$L:compose_124$,1417,1,9891,9909;9899;9917,1;1;5,,,0
149,$L:compose_124$,1417,1,9888,9909;9896;9914,1;1;5,,,0
150,$L:compose_124$,1417,1,9890,9909;9898;9916,1;1;5,,,0
151,$L:compose_124$,1417,1,9889,9909;9897;9915,1;1;5,,,0
152,$L:compose_125$,1418,1,9868,9982,1,,,0
153,$L:compose_125$,1418,1,9958,9868;9983;9705,1;1;10,,,0
154,$L:compose_125$,1418,1,9964,9958;9984;9705,1;1;20,,,0
155,$L:compose_125$,1418,1,9970,9964;9985;9705,1;1;70,,,0
156,$L:compose_125$,1418,1,9869,9982,1,,,0
157,$L:compose_125$,1418,1,9959,9869;9983;9705,1;1;10,,,0
158,$L:compose_125$,1418,1,9965,9959;9984;9705,1;1;20,,,0
159,$L:compose_125$,1418,1,9971,9965;9985;9705,1;1;70,,,0
160,$L:compose_125$,1418,1,9870,9982,1,,,0
161,$L:compose_125$,1418,1,9960,9870;9983;9705,1;1;10,,,0
162,$L:compose_125$,1418,1,9966,9960;9984;9705,1;1;20,,,0
163,$L:compose_125$,1418,1,9972,9966;9985;9705,1;1;70,,,0
164,$L:compose_125$,1418,1,9871,9982,1,,,0
165,$L:compose_125$,1418,1,9961,9871;9983;9705,1;1;10,,,0
166,$L:compose_125$,1418,1,9967,9961;9984;9705,1;1;20,,,0
167,$L:compose_125$,1418,1,9973,9967;9985;9705,1;1;70,,,0
168,$L:compose_125$,1418,1,9873,9982,1,,,0
169,$L:compose_125$,1418,1,9963,9873;9983;9705,1;1;10,,,0
170,$L:compose_125$,1418,1,9969,9963;9984;9705,1;1;30,,,0
171,$L:compose_125$,1418,1,9975,9969;9985;9705,1;1;70,,,0
172,$L:compose_125$,1418,1,9872,9982,1,,,0
173,$L:compose_125$,1418,1,9962,9872;9983;9705,1;1;10,,,0
174,$L:compose_125$,1418,1,9968,9962;9984;9705,1;1;20,,,0
175,$L:compose_125$,1418,1,9974,9968;9985;9705,1;1;70,,,0
176,$L:compose_31$,686,1,20237,406;403;8659;20041,25;25;20;1,,,0
177,$L:compose_31$,686,1,20238,406;403;8659;20042,25;25;20;1,,,0
178,$L:compose_31$,686,1,20239,406;403;8659;20043,25;25;20;1,,,0
179,$L:compose_31$,686,1,20240,406;403;8659;4694,25;25;20;1,,,0
180,$L:compose_31$,686,1,20241,406;403;8659;4695,25;25;20;1,,,0
181,$L:compose_187$,24,7,521,520,1,,,0
182,$L:compose_188$,24,7,522,520,1,,,0
183,$L:compose_189$,24,7,523,520,1,,,0
194,$L:compose_190$,24,7,524,520,1,,,0
