typeid,posx,posy,dir
4510,245,-577,2
4511,166,-535,2
2063,420,-524,10
2064,425,-530,11
9217,81,-531,0
2070,310,-468,10
4755,155,-530,0
2072,420,-536,14
9379,317,-489,8
9380,323,-489,8
9252,329,-489,8
9659,335,-489,8
2062,153,-489,2
9314,172,-540,0
5033,102,-509,8
4371,289,-467,6
9695,289,-473,4
9543,283,-490,8
415,267,-488,8
4566,260,-478,8
9638,254,-488,8
2914,248,-494,4
338,247,-504,4
9213,231,-541,0
9214,226,-536,2
9633,224,-531,2
5455,177,-532,12
9212,222,-508,6
5350,227,-509,8
9653,347,-489,8
9382,348,-497,12
9566,348,-533,12
5306,348,-541,12
9305,166,-489,14
9216,245,-559,4
9215,245,-553,4
9655,245,-546,4
9430,273,-560,2
183,274,-509,6
9666,299,-512,8
288,295,-534,12
290,303,-534,4
9657,212,-568,4
9307,218,-577,0
9217,299,-538,8
9631,328,-604,8
9631,328,-604,8
9630,323,-638,0
9635,360,-607,12
9627,360,-614,12
9628,360,-621,12
9629,169,-513,8
9407,321,-534,4
9634,348,-604,8
254,466,-406,12
9636,159,-476,8
102,232,-531,12
9002,324,-786,10
5349,145,-514,8
9013,319,-781,8
9662,346,-576,0
9663,337,-576,0